{
    "key": "group_573e147055e26",
    "title": "Modelo",
    "fields": [
        {
            "key": "field_59ce499d4d588",
            "label": "Marcar como nuevo",
            "name": "models_new",
            "type": "true_false",
            "instructions": "",
            "required": 0,
            "conditional_logic": 0,
            "wrapper": {
                "width": "",
                "class": "",
                "id": ""
            },
            "message": "",
            "default_value": 0
        },
        {
            "key": "field_573e14c664bff",
            "label": "Cabecera",
            "name": "",
            "type": "tab",
            "instructions": "",
            "required": 0,
            "conditional_logic": 0,
            "wrapper": {
                "width": "",
                "class": "",
                "id": ""
            },
            "placement": "top",
            "endpoint": 0
        },
        {
            "key": "field_573e1a9a22d5c",
            "label": "Imagen destacada",
            "name": "imagen_destacada_header",
            "type": "image",
            "instructions": "",
            "required": 0,
            "conditional_logic": 0,
            "wrapper": {
                "width": 50,
                "class": "",
                "id": ""
            },
            "return_format": "array",
            "preview_size": "thumbnail",
            "library": "all",
            "min_width": "",
            "min_height": "",
            "min_size": "",
            "max_width": "",
            "max_height": "",
            "max_size": "",
            "mime_types": ""
        },
        {
            "key": "field_5744ba1d09aa7",
            "label": "Descripci\u00f3n breve",
            "name": "descripcion_breve",
            "type": "textarea",
            "instructions": "Se utilizar\u00e1 en secci\u00f3n destacados",
            "required": 0,
            "conditional_logic": 0,
            "wrapper": {
                "width": 50,
                "class": "",
                "id": ""
            },
            "default_value": "",
            "placeholder": "",
            "maxlength": 100,
            "rows": 4,
            "new_lines": "",
            "readonly": 0,
            "disabled": 0
        },
        {
            "key": "field_573e14e764c00",
            "label": "Precio Normal",
            "name": "precio_normal",
            "type": "number",
            "instructions": "Solo n\u00fameros",
            "required": 0,
            "conditional_logic": 0,
            "wrapper": {
                "width": 50,
                "class": "",
                "id": ""
            },
            "default_value": "",
            "placeholder": "",
            "prepend": "",
            "append": "",
            "min": "",
            "max": "",
            "step": "",
            "readonly": 0,
            "disabled": 0
        },
        {
            "key": "field_573e14f064c01",
            "label": "Precio con Bono",
            "name": "precio_con_bono",
            "type": "number",
            "instructions": "Solo n\u00fameros",
            "required": 0,
            "conditional_logic": 0,
            "wrapper": {
                "width": 50,
                "class": "",
                "id": ""
            },
            "default_value": "",
            "placeholder": "",
            "prepend": "",
            "append": "",
            "min": "",
            "max": "",
            "step": "",
            "readonly": 0,
            "disabled": 0
        },
        {
            "key": "field_573e150864c02",
            "label": "Caracter\u00edsticas",
            "name": "",
            "type": "tab",
            "instructions": "",
            "required": 0,
            "conditional_logic": 0,
            "wrapper": {
                "width": "",
                "class": "",
                "id": ""
            },
            "placement": "top",
            "endpoint": 0
        },
        {
            "key": "field_57cd8c3f44385",
            "label": "Caracter\u00edsticas T\u00e9cnicas",
            "name": "caracteristicas_tecnicas_repeater",
            "type": "repeater",
            "instructions": "",
            "required": 0,
            "conditional_logic": 0,
            "wrapper": {
                "width": "",
                "class": "",
                "id": ""
            },
            "collapsed": "",
            "min": "",
            "max": "",
            "layout": "block",
            "button_label": "A\u00f1adir caracter\u00edstica",
            "sub_fields": [
                {
                    "key": "field_57cd8c5744386",
                    "label": "Mostrar Icono de",
                    "name": "mostrar_icono_de",
                    "type": "select",
                    "instructions": "70 x 65",
                    "required": 0,
                    "conditional_logic": 0,
                    "wrapper": {
                        "width": "50",
                        "class": "",
                        "id": ""
                    },
                    "choices": {
                        "revoluciones": "Asistencia a bajas revoluciones",
                        "control": "Control de partida",
                        "traccion": "Control de Traccio\u0301n",
                        "abs": "Frenos ABS",
                        "electronica": "Inyeccio\u0301n Electro\u0301nica",
                        "euro3": "Norma Euro 3",
                        "euro4": "Norma Euro 4",
                        "quickshift": "Quick Shift Bidireccional",
                        "antirrobo": "Sistema Antirrobo",
                        "easystart": "Sistema Easy Start",
                        "ramair": "Sistema Ram Air"
                    },
                    "default_value": [

                    ],
                    "allow_null": 0,
                    "multiple": 0,
                    "ui": 0,
                    "ajax": 0,
                    "return_format": "value",
                    "placeholder": ""
                },
                {
                    "key": "field_57cd8cd244387",
                    "label": "Texto",
                    "name": "texto",
                    "type": "text",
                    "instructions": "",
                    "required": 0,
                    "conditional_logic": 0,
                    "wrapper": {
                        "width": "50",
                        "class": "",
                        "id": ""
                    },
                    "default_value": "",
                    "placeholder": "",
                    "prepend": "",
                    "append": "",
                    "maxlength": ""
                }
            ]
        },
        {
            "key": "field_5744bb1f9880e",
            "label": "N\u00famero de modelo",
            "name": "numero_de_modelo",
            "type": "text",
            "instructions": "",
            "required": 0,
            "conditional_logic": 0,
            "wrapper": {
                "width": "",
                "class": "",
                "id": ""
            },
            "default_value": "",
            "placeholder": "DL1000A",
            "prepend": "",
            "append": "",
            "maxlength": 34,
            "readonly": 0,
            "disabled": 0
        },
        {
            "key": "field_573e152164c03",
            "label": "T\u00edtulo",
            "name": "titulo",
            "type": "text",
            "instructions": "",
            "required": 0,
            "conditional_logic": 0,
            "wrapper": {
                "width": "",
                "class": "",
                "id": ""
            },
            "default_value": "",
            "placeholder": "",
            "prepend": "",
            "append": "",
            "maxlength": "",
            "readonly": 0,
            "disabled": 0
        },
        {
            "key": "field_573e152b64c04",
            "label": "Descripci\u00f3n",
            "name": "descripcion",
            "type": "wysiwyg",
            "instructions": "",
            "required": 0,
            "conditional_logic": 0,
            "wrapper": {
                "width": "",
                "class": "",
                "id": ""
            },
            "default_value": "",
            "tabs": "all",
            "toolbar": "full",
            "media_upload": 0
        },
        {
            "key": "field_573e154664c05",
            "label": "Caracter\u00edsticas T\u00e9cnicas",
            "name": "caracteristicas_tecnicas",
            "type": "checkbox",
            "instructions": "",
            "required": 0,
            "conditional_logic": 0,
            "wrapper": {
                "width": "",
                "class": "",
                "id": ""
            },
            "choices": {
                "origen-japon": "Origen Jap\u00f3n",
                "6-cambios": "6 Cambios",
                "refrigerante-liquido": "Refrigerante L\u00edquido",
                "economia": "Econ\u00f3mica"
            },
            "default_value": [

            ],
            "layout": "vertical",
            "toggle": 0,
            "return_format": "value"
        },
        {
            "key": "field_573e163664c06",
            "label": "Ficha T\u00e9cnica",
            "name": "",
            "type": "tab",
            "instructions": "",
            "required": 0,
            "conditional_logic": 0,
            "wrapper": {
                "width": "",
                "class": "",
                "id": ""
            },
            "placement": "top",
            "endpoint": 0
        },
        {
            "key": "field_573e1b31e43eb",
            "label": "Imagen de fondo",
            "name": "imagen_de_fondo",
            "type": "image",
            "instructions": "",
            "required": 0,
            "conditional_logic": 0,
            "wrapper": {
                "width": "",
                "class": "",
                "id": ""
            },
            "return_format": "array",
            "preview_size": "thumbnail",
            "library": "all",
            "min_width": "",
            "min_height": "",
            "min_size": "",
            "max_width": "",
            "max_height": "",
            "max_size": "",
            "mime_types": ""
        },
        {
            "key": "field_573e165b64c07",
            "label": "Tabla",
            "name": "tabla",
            "type": "repeater",
            "instructions": "",
            "required": 0,
            "conditional_logic": 0,
            "wrapper": {
                "width": "",
                "class": "",
                "id": ""
            },
            "collapsed": "",
            "min": "",
            "max": "",
            "layout": "block",
            "button_label": "A\u00f1adir tabla",
            "sub_fields": [
                {
                    "key": "field_573e167464c08",
                    "label": "T\u00edtulo",
                    "name": "titulo",
                    "type": "text",
                    "instructions": "",
                    "required": 0,
                    "conditional_logic": 0,
                    "wrapper": {
                        "width": "",
                        "class": "",
                        "id": ""
                    },
                    "default_value": "",
                    "placeholder": "",
                    "prepend": "",
                    "append": "",
                    "maxlength": "",
                    "readonly": 0,
                    "disabled": 0
                },
                {
                    "key": "field_573e168664c09",
                    "label": "Item",
                    "name": "item",
                    "type": "repeater",
                    "instructions": "",
                    "required": 0,
                    "conditional_logic": 0,
                    "wrapper": {
                        "width": "",
                        "class": "",
                        "id": ""
                    },
                    "collapsed": "",
                    "min": "",
                    "max": "",
                    "layout": "table",
                    "button_label": "A\u00f1adir item",
                    "sub_fields": [
                        {
                            "key": "field_573e16a464c0a",
                            "label": "Item nombre",
                            "name": "item_nombre",
                            "type": "text",
                            "instructions": "",
                            "required": 0,
                            "conditional_logic": 0,
                            "wrapper": {
                                "width": "",
                                "class": "",
                                "id": ""
                            },
                            "default_value": "",
                            "placeholder": "",
                            "prepend": "",
                            "append": "",
                            "maxlength": "",
                            "readonly": 0,
                            "disabled": 0
                        },
                        {
                            "key": "field_573e16ad64c0b",
                            "label": "Detalle",
                            "name": "detalle",
                            "type": "text",
                            "instructions": "",
                            "required": 0,
                            "conditional_logic": 0,
                            "wrapper": {
                                "width": "",
                                "class": "",
                                "id": ""
                            },
                            "default_value": "",
                            "placeholder": "",
                            "prepend": "",
                            "append": "",
                            "maxlength": "",
                            "readonly": 0,
                            "disabled": 0
                        }
                    ]
                }
            ]
        },
        {
            "key": "field_573e174a45027",
            "label": "Ficha en PDF",
            "name": "ficha_en_pdf",
            "type": "file",
            "instructions": "",
            "required": 0,
            "conditional_logic": 0,
            "wrapper": {
                "width": "",
                "class": "",
                "id": ""
            },
            "return_format": "array",
            "library": "all",
            "min_size": "",
            "max_size": "",
            "mime_types": "pdf"
        },
        {
            "key": "field_573e17883a0ab",
            "label": "Galer\u00eda",
            "name": "",
            "type": "tab",
            "instructions": "",
            "required": 0,
            "conditional_logic": 0,
            "wrapper": {
                "width": "",
                "class": "",
                "id": ""
            },
            "placement": "top",
            "endpoint": 0
        },
        {
            "key": "field_573e18e2c277b",
            "label": "Galer\u00eda",
            "name": "galeria",
            "type": "gallery",
            "instructions": "",
            "required": 0,
            "conditional_logic": 0,
            "wrapper": {
                "width": "",
                "class": "",
                "id": ""
            },
            "min": "",
            "max": "",
            "preview_size": "thumbnail",
            "insert": "append",
            "library": "all",
            "min_width": "",
            "min_height": "",
            "min_size": "",
            "max_width": "",
            "max_height": "",
            "max_size": "",
            "mime_types": ""
        },
        {
            "key": "field_573e197385c76",
            "label": "Footer",
            "name": "",
            "type": "tab",
            "instructions": "",
            "required": 0,
            "conditional_logic": 0,
            "wrapper": {
                "width": "",
                "class": "",
                "id": ""
            },
            "placement": "top",
            "endpoint": 0
        },
        {
            "key": "field_573e1b54e43ec",
            "label": "Imagen de fondo",
            "name": "imagen_de_fondo_prefooter",
            "type": "image",
            "instructions": "",
            "required": 0,
            "conditional_logic": 0,
            "wrapper": {
                "width": "",
                "class": "",
                "id": ""
            },
            "return_format": "array",
            "preview_size": "thumbnail",
            "library": "all",
            "min_width": "",
            "min_height": "",
            "min_size": "",
            "max_width": "",
            "max_height": "",
            "max_size": "",
            "mime_types": ""
        },
        {
            "key": "field_573e1be4e43ef",
            "label": "T\u00edtulo",
            "name": "columna_titulo_izq",
            "type": "text",
            "instructions": "",
            "required": 0,
            "conditional_logic": 0,
            "wrapper": {
                "width": "50",
                "class": "",
                "id": ""
            },
            "default_value": "COTIZAR",
            "placeholder": "COTIZAR",
            "prepend": "",
            "append": "",
            "maxlength": ""
        },
        {
            "key": "field_573e1b9de43ed",
            "label": "T\u00edtulo",
            "name": "columna_titulo_der",
            "type": "text",
            "instructions": "",
            "required": 0,
            "conditional_logic": 0,
            "wrapper": {
                "width": "50",
                "class": "",
                "id": ""
            },
            "default_value": "",
            "placeholder": "M\u00c1S INFORMACI\u00d3N",
            "prepend": "",
            "append": "",
            "maxlength": ""
        },
        {
            "key": "field_573e1bffe43f0",
            "label": "Descripci\u00f3n",
            "name": "columna_descripcion_izq",
            "type": "textarea",
            "instructions": "",
            "required": 0,
            "conditional_logic": 0,
            "wrapper": {
                "width": 50,
                "class": "",
                "id": ""
            },
            "default_value": "",
            "placeholder": "",
            "maxlength": "",
            "rows": "",
            "new_lines": "wpautop",
            "readonly": 0,
            "disabled": 0
        },
        {
            "key": "field_573e1bcbe43ee",
            "label": "Descripci\u00f3n",
            "name": "columna_descripcion_der",
            "type": "textarea",
            "instructions": "",
            "required": 0,
            "conditional_logic": 0,
            "wrapper": {
                "width": 50,
                "class": "",
                "id": ""
            },
            "default_value": "",
            "placeholder": "",
            "maxlength": "",
            "rows": "",
            "new_lines": "wpautop",
            "readonly": 0,
            "disabled": 0
        },
        {
            "key": "field_573e1c520f338",
            "label": "Bot\u00f3n t\u00edtulo",
            "name": "boton_izq",
            "type": "text",
            "instructions": "",
            "required": 0,
            "conditional_logic": 0,
            "wrapper": {
                "width": "50",
                "class": "",
                "id": ""
            },
            "default_value": "COTIZAR",
            "placeholder": "COTIZAR",
            "prepend": "",
            "append": "",
            "maxlength": ""
        },
        {
            "key": "field_573e1c6a0f339",
            "label": "Bot\u00f3n t\u00edtulo",
            "name": "boton_der",
            "type": "text",
            "instructions": "",
            "required": 0,
            "conditional_logic": 0,
            "wrapper": {
                "width": "50",
                "class": "",
                "id": ""
            },
            "default_value": "",
            "placeholder": "TE LLAMAMOS GRATIS",
            "prepend": "",
            "append": "",
            "maxlength": ""
        },
        {
            "key": "field_573e1d7672c78",
            "label": "Abrir en:",
            "name": "abrir_en_izq",
            "type": "radio",
            "instructions": "",
            "required": 0,
            "conditional_logic": 0,
            "wrapper": {
                "width": "25",
                "class": "",
                "id": ""
            },
            "choices": {
                "nueva_ventana": "Nueva ventana",
                "misma_ventana": "Mantener Ventana"
            },
            "allow_null": 0,
            "other_choice": 0,
            "save_other_choice": 0,
            "default_value": "",
            "layout": "vertical",
            "return_format": "value"
        },
        {
            "key": "field_573e1eab0958e",
            "label": "URL tipo (izq)",
            "name": "url_tipo_izq",
            "type": "radio",
            "instructions": "",
            "required": 0,
            "conditional_logic": 0,
            "wrapper": {
                "width": 25,
                "class": "",
                "id": ""
            },
            "choices": {
                "url": "URL",
                "pagina": "P\u00e1gina del sitio"
            },
            "allow_null": 0,
            "other_choice": 0,
            "save_other_choice": 0,
            "default_value": "",
            "layout": "vertical",
            "return_format": "value"
        },
        {
            "key": "field_573e1d130f33b",
            "label": "Abrir en:",
            "name": "abrir_en_der",
            "type": "radio",
            "instructions": "",
            "required": 0,
            "conditional_logic": 0,
            "wrapper": {
                "width": 25,
                "class": "",
                "id": ""
            },
            "choices": {
                "nueva_ventana": "Nueva ventana",
                "misma_ventana": "Mantener Ventana"
            },
            "allow_null": 0,
            "other_choice": 0,
            "save_other_choice": 0,
            "default_value": "",
            "layout": "vertical",
            "return_format": "value"
        },
        {
            "key": "field_573e1d7272c77",
            "label": "URL tipo (der)",
            "name": "url_tipo_der",
            "type": "radio",
            "instructions": "",
            "required": 0,
            "conditional_logic": 0,
            "wrapper": {
                "width": 25,
                "class": "",
                "id": ""
            },
            "choices": {
                "url": "URL",
                "pagina": "P\u00e1gina del sitio"
            },
            "allow_null": 0,
            "other_choice": 0,
            "save_other_choice": 0,
            "default_value": "",
            "layout": "vertical",
            "return_format": "value"
        },
        {
            "key": "field_573e1df00958c",
            "label": "URL",
            "name": "url_izq",
            "type": "url",
            "instructions": "",
            "required": 0,
            "conditional_logic": [
                [
                    {
                        "field": "field_573e1eab0958e",
                        "operator": "==",
                        "value": "url"
                    }
                ]
            ],
            "wrapper": {
                "width": 50,
                "class": "",
                "id": ""
            },
            "default_value": "",
            "placeholder": ""
        },
        {
            "key": "field_573e1df60958d",
            "label": "P\u00e1gina",
            "name": "pagina_izq",
            "type": "post_object",
            "instructions": "",
            "required": 0,
            "conditional_logic": [
                [
                    {
                        "field": "field_573e1eab0958e",
                        "operator": "==",
                        "value": "pagina"
                    }
                ]
            ],
            "wrapper": {
                "width": 50,
                "class": "",
                "id": ""
            },
            "post_type": [

            ],
            "taxonomy": [

            ],
            "allow_null": 0,
            "multiple": 0,
            "return_format": "object",
            "ui": 1
        },
        {
            "key": "field_573e1d9e72c79",
            "label": "URL",
            "name": "url_der",
            "type": "url",
            "instructions": "",
            "required": 0,
            "conditional_logic": [
                [
                    {
                        "field": "field_573e1d7272c77",
                        "operator": "==",
                        "value": "url"
                    }
                ]
            ],
            "wrapper": {
                "width": "50",
                "class": "",
                "id": ""
            },
            "default_value": "",
            "placeholder": "http:\/\/clicktocall.in-touch.cl\/index.aspx?nEmpresa=20"
        },
        {
            "key": "field_573e1da672c7a",
            "label": "P\u00e1gina",
            "name": "pagina_der",
            "type": "post_object",
            "instructions": "",
            "required": 0,
            "conditional_logic": [
                [
                    {
                        "field": "field_573e1d7272c77",
                        "operator": "==",
                        "value": "pagina"
                    }
                ]
            ],
            "wrapper": {
                "width": 50,
                "class": "",
                "id": ""
            },
            "post_type": [

            ],
            "taxonomy": [

            ],
            "allow_null": 0,
            "multiple": 0,
            "return_format": "object",
            "ui": 1
        },
        {
            "key": "field_598a1961e9f14",
            "label": "Colores",
            "name": "",
            "type": "tab",
            "instructions": "",
            "required": 0,
            "conditional_logic": 0,
            "wrapper": {
                "width": "",
                "class": "",
                "id": ""
            },
            "placement": "top",
            "endpoint": 0
        },
        {
            "key": "field_598a1977e9f15",
            "label": "Colores",
            "name": "model_colors",
            "type": "repeater",
            "instructions": "",
            "required": 0,
            "conditional_logic": 0,
            "wrapper": {
                "width": "",
                "class": "",
                "id": ""
            },
            "collapsed": "",
            "min": "",
            "max": "",
            "layout": "block",
            "button_label": "Agregar color",
            "sub_fields": [
                {
                    "key": "field_598a1995e9f16",
                    "label": "Color",
                    "name": "color",
                    "type": "color_picker",
                    "instructions": "",
                    "required": 0,
                    "conditional_logic": 0,
                    "wrapper": {
                        "width": "",
                        "class": "",
                        "id": ""
                    },
                    "default_value": ""
                }
            ]
        }
    ],
    "location": [
        [
            {
                "param": "post_type",
                "operator": "==",
                "value": "modelo"
            }
        ]
    ],
    "menu_order": -1,
    "position": "normal",
    "style": "default",
    "label_placement": "top",
    "instruction_placement": "label",
    "hide_on_screen": "",
    "active": 1,
    "description": "",
    "modified": 1510857790
}