{
    "key": "group_573b3f2b6810b",
    "title": "Imagen Destacada",
    "fields": [
        {
            "key": "field_573b3f352a5bf",
            "label": "Imagen Compartir",
            "name": "imagen_compartir",
            "type": "image",
            "instructions": "Imagen que representa el contenido, se usar\u00e1 en caso de llamar un miniatura de la p\u00e1gina o al compartir en redes sociales.",
            "required": 0,
            "conditional_logic": 0,
            "wrapper": {
                "width": "",
                "class": "",
                "id": ""
            },
            "return_format": "array",
            "preview_size": "thumbnail",
            "library": "all",
            "min_width": "",
            "min_height": "",
            "min_size": "",
            "max_width": "",
            "max_height": "",
            "max_size": "",
            "mime_types": ""
        },
        {
            "key": "field_573e3007ec5c3",
            "label": "Imagen Cabecera",
            "name": "imagen_cabecera",
            "type": "image",
            "instructions": "Se utilizar\u00e1 en la cabecera del sitio en caso de que la plantilla que muestra el contenido cuente con esta opci\u00f3n.",
            "required": 0,
            "conditional_logic": 0,
            "wrapper": {
                "width": "",
                "class": "",
                "id": ""
            },
            "return_format": "array",
            "preview_size": "thumbnail",
            "library": "all",
            "min_width": "",
            "min_height": "",
            "min_size": "",
            "max_width": "",
            "max_height": "",
            "max_size": "",
            "mime_types": ""
        }
    ],
    "location": [
        [
            {
                "param": "post_type",
                "operator": "==",
                "value": "page"
            },
            {
                "param": "page_template",
                "operator": "!=",
                "value": "concesionarios"
            }
        ],
        [
            {
                "param": "post_type",
                "operator": "==",
                "value": "post"
            }
        ],
        [
            {
                "param": "taxonomy",
                "operator": "==",
                "value": "tipos_modelos"
            }
        ],
        [
            {
                "param": "post_type",
                "operator": "==",
                "value": "modelo"
            }
        ]
    ],
    "menu_order": -1,
    "position": "normal",
    "style": "default",
    "label_placement": "top",
    "instruction_placement": "label",
    "hide_on_screen": "",
    "active": 1,
    "description": "",
    "modified": 1468943372
}