{
    "key": "group_58486c8bcfd5e",
    "title": "Slide",
    "fields": [
        {
            "key": "field_58486c8bda182",
            "label": "Slide",
            "name": "slide",
            "type": "repeater",
            "instructions": "",
            "required": 0,
            "conditional_logic": 0,
            "wrapper": {
                "width": "",
                "class": "",
                "id": ""
            },
            "collapsed": "",
            "min": "",
            "max": 6,
            "layout": "block",
            "button_label": "A\u00f1adir nueva imagen",
            "sub_fields": [
                {
                    "key": "field_58486c8be0ce0",
                    "label": "Imagen",
                    "name": "imagen",
                    "type": "image",
                    "instructions": "Tama\u00f1o m\u00ednimo: 1440 x 770",
                    "required": 0,
                    "conditional_logic": 0,
                    "wrapper": {
                        "width": "",
                        "class": "",
                        "id": ""
                    },
                    "return_format": "array",
                    "preview_size": "thumbnail",
                    "library": "all",
                    "min_width": 1440,
                    "min_height": 770,
                    "min_size": "",
                    "max_width": "",
                    "max_height": "",
                    "max_size": "",
                    "mime_types": ""
                },
                {
                    "key": "field_58486c8be0db4",
                    "label": "T\u00edtulo",
                    "name": "titulo",
                    "type": "text",
                    "instructions": "",
                    "required": 0,
                    "conditional_logic": 0,
                    "wrapper": {
                        "width": 50,
                        "class": "",
                        "id": ""
                    },
                    "default_value": "",
                    "placeholder": "",
                    "prepend": "",
                    "append": "",
                    "maxlength": "",
                    "readonly": 0,
                    "disabled": 0
                },
                {
                    "key": "field_58486c8be0e82",
                    "label": "Descripci\u00f3n",
                    "name": "descripcion",
                    "type": "textarea",
                    "instructions": "",
                    "required": 0,
                    "conditional_logic": 0,
                    "wrapper": {
                        "width": 50,
                        "class": "",
                        "id": ""
                    },
                    "default_value": "",
                    "placeholder": "",
                    "maxlength": "",
                    "rows": 2,
                    "new_lines": "wpautop",
                    "readonly": 0,
                    "disabled": 0
                },
                {
                    "key": "field_58486c8be0f4d",
                    "label": "Superposici\u00f3n de color",
                    "name": "superposicion_de_color",
                    "type": "color_picker",
                    "instructions": "",
                    "required": "",
                    "conditional_logic": "",
                    "wrapper": {
                        "width": 50,
                        "class": "",
                        "id": ""
                    },
                    "default_value": "#333333"
                },
                {
                    "key": "field_58486c8be102d",
                    "label": "Opacidad de color",
                    "name": "opacidad_de_color",
                    "type": "Range",
                    "instructions": "",
                    "required": 0,
                    "conditional_logic": 0,
                    "wrapper": {
                        "width": 50,
                        "class": "",
                        "id": ""
                    },
                    "slider_type": "default",
                    "title": "Opacidad",
                    "prepend": "",
                    "append": "",
                    "separate": "-",
                    "default_value_1": "0.6",
                    "default_value_2": "0.6",
                    "min": 0,
                    "max": 1,
                    "step": "0.1",
                    "font_size": 14
                },
                {
                    "key": "field_58486c8be10f9",
                    "label": "Posici\u00f3n del texto",
                    "name": "posicion_del_texto",
                    "type": "select",
                    "instructions": "",
                    "required": 0,
                    "conditional_logic": 0,
                    "wrapper": {
                        "width": 50,
                        "class": "",
                        "id": ""
                    },
                    "choices": {
                        "left": "Izquierda",
                        "center": "Centro",
                        "right": "Derecha"
                    },
                    "default_value": [
                        "center"
                    ],
                    "allow_null": 0,
                    "multiple": 0,
                    "ui": 0,
                    "ajax": 0,
                    "placeholder": "",
                    "disabled": 0,
                    "readonly": 0,
                    "return_format": "value"
                },
                {
                    "key": "field_58486c8be11ec",
                    "label": "Bot\u00f3n",
                    "name": "boton",
                    "type": "checkbox",
                    "instructions": "",
                    "required": 0,
                    "conditional_logic": 0,
                    "wrapper": {
                        "width": 50,
                        "class": "",
                        "id": ""
                    },
                    "choices": {
                        "true": "Mostrar Bot\u00f3n"
                    },
                    "default_value": [

                    ],
                    "layout": "vertical",
                    "toggle": 0,
                    "return_format": "value"
                },
                {
                    "key": "field_58486c8be12bb",
                    "label": "Texto",
                    "name": "texto_boton",
                    "type": "text",
                    "instructions": "",
                    "required": 0,
                    "conditional_logic": [
                        [
                            {
                                "field": "field_58486c8be11ec",
                                "operator": "==",
                                "value": "true"
                            }
                        ]
                    ],
                    "wrapper": {
                        "width": 33,
                        "class": "",
                        "id": ""
                    },
                    "default_value": "",
                    "placeholder": "",
                    "prepend": "",
                    "append": "",
                    "maxlength": "",
                    "readonly": 0,
                    "disabled": 0
                },
                {
                    "key": "field_58486c8be138b",
                    "label": "URL",
                    "name": "url_boton",
                    "type": "url",
                    "instructions": "",
                    "required": 0,
                    "conditional_logic": [
                        [
                            {
                                "field": "field_58486c8be11ec",
                                "operator": "==",
                                "value": "true"
                            }
                        ]
                    ],
                    "wrapper": {
                        "width": 33,
                        "class": "",
                        "id": ""
                    },
                    "default_value": "http:\/\/",
                    "placeholder": ""
                },
                {
                    "key": "field_58486c8be156f",
                    "label": "Abrir en nueva ventana",
                    "name": "abrir_en_nueva_ventana",
                    "type": "checkbox",
                    "instructions": "Recomendado solo para enlaces que salen del sitio.",
                    "required": 0,
                    "conditional_logic": [
                        [
                            {
                                "field": "field_58486c8be11ec",
                                "operator": "==",
                                "value": "true"
                            }
                        ]
                    ],
                    "wrapper": {
                        "width": 33,
                        "class": "",
                        "id": ""
                    },
                    "choices": {
                        "true": "Nueva ventana"
                    },
                    "default_value": [

                    ],
                    "layout": "vertical",
                    "toggle": 0,
                    "return_format": "value"
                }
            ]
        }
    ],
    "location": [
        [
            {
                "param": "page",
                "operator": "==",
                "value": "4"
            }
        ]
    ],
    "menu_order": 1,
    "position": "normal",
    "style": "default",
    "label_placement": "top",
    "instruction_placement": "label",
    "hide_on_screen": "",
    "active": 1,
    "description": "",
    "modified": 1481141497
}