{
    "key": "group_57ae640daf5f8",
    "title": "Pre-footer (info)",
    "fields": [
        {
            "key": "field_57cd86b6f748f",
            "label": "Logo top",
            "name": "logo_top",
            "type": "image",
            "instructions": "",
            "required": 0,
            "conditional_logic": 0,
            "wrapper": {
                "width": "",
                "class": "",
                "id": ""
            },
            "return_format": "array",
            "preview_size": "thumbnail",
            "library": "all",
            "min_width": "",
            "min_height": 60,
            "min_size": "",
            "max_width": "",
            "max_height": "",
            "max_size": "",
            "mime_types": ""
        },
        {
            "key": "field_57ae640dbb7cd",
            "label": "Im\u00e1gen de fondo",
            "name": "imagen_de_fondo_prefooter",
            "type": "image",
            "instructions": "",
            "required": 0,
            "conditional_logic": 0,
            "wrapper": {
                "width": "",
                "class": "",
                "id": ""
            },
            "return_format": "url",
            "preview_size": "thumbnail",
            "library": "all",
            "min_width": "",
            "min_height": "",
            "min_size": "",
            "max_width": "",
            "max_height": "",
            "max_size": "",
            "mime_types": ""
        },
        {
            "key": "field_57ae640dbb852",
            "label": "T\u00edtulo",
            "name": "titulo_prefooter",
            "type": "text",
            "instructions": "",
            "required": 0,
            "conditional_logic": 0,
            "wrapper": {
                "width": "",
                "class": "",
                "id": ""
            },
            "default_value": "",
            "placeholder": "",
            "prepend": "",
            "append": "",
            "maxlength": "",
            "readonly": 0,
            "disabled": 0
        },
        {
            "key": "field_57ae640dbb8e4",
            "label": "Descripci\u00f3n",
            "name": "descripcion_prefooter",
            "type": "textarea",
            "instructions": "",
            "required": 0,
            "conditional_logic": 0,
            "wrapper": {
                "width": "",
                "class": "",
                "id": ""
            },
            "default_value": "",
            "placeholder": "",
            "maxlength": "",
            "rows": "",
            "new_lines": "",
            "readonly": 0,
            "disabled": 0
        },
        {
            "key": "field_57ae640dbb97c",
            "label": "Mostrar boton",
            "name": "mostrar_boton_prefooter",
            "type": "radio",
            "instructions": "",
            "required": 1,
            "conditional_logic": 0,
            "wrapper": {
                "width": "",
                "class": "",
                "id": ""
            },
            "choices": {
                "SI": "SI",
                "NO": "NO"
            },
            "allow_null": 0,
            "other_choice": 0,
            "save_other_choice": 0,
            "default_value": "",
            "layout": "horizontal",
            "return_format": "value"
        },
        {
            "key": "field_57ae640dbba01",
            "label": "Bot\u00f3n T\u00edtulo",
            "name": "boton_titulo_prefooter",
            "type": "text",
            "instructions": "",
            "required": 0,
            "conditional_logic": [
                [
                    {
                        "field": "field_57ae640dbb97c",
                        "operator": "==",
                        "value": "SI"
                    }
                ]
            ],
            "wrapper": {
                "width": 50,
                "class": "",
                "id": ""
            },
            "default_value": "",
            "placeholder": "",
            "prepend": "",
            "append": "",
            "maxlength": "",
            "readonly": 0,
            "disabled": 0
        },
        {
            "key": "field_57ae640dbba81",
            "label": "P\u00e1gina",
            "name": "pagina_prefooter",
            "type": "page_link",
            "instructions": "",
            "required": 0,
            "conditional_logic": [
                [
                    {
                        "field": "field_57ae640dbb97c",
                        "operator": "==",
                        "value": "SI"
                    }
                ]
            ],
            "wrapper": {
                "width": 50,
                "class": "",
                "id": ""
            },
            "post_type": [
                "post",
                "page",
                "modelo"
            ],
            "taxonomy": [],
            "allow_null": 0,
            "multiple": 0,
            "allow_archives": 1
        }
    ],
    "location": [
        [
            {
                "param": "page_template",
                "operator": "==",
                "value": "contacto-marcas"
            }
        ]
    ],
    "menu_order": 0,
    "position": "normal",
    "style": "default",
    "label_placement": "top",
    "instruction_placement": "label",
    "hide_on_screen": "",
    "active": 1,
    "description": "",
    "modified": 1473087230
}