{
    "key": "group_57a4ef07ae4b9",
    "title": "Cl\u00ednica Introducci\u00f3n",
    "fields": [
        {
            "key": "field_57a4ef13a9779",
            "label": "T\u00edtulo",
            "name": "titulo_introduccion_clinica",
            "type": "text",
            "instructions": "",
            "required": 0,
            "conditional_logic": 0,
            "wrapper": {
                "width": "",
                "class": "",
                "id": ""
            },
            "default_value": "",
            "placeholder": "",
            "prepend": "",
            "append": "",
            "maxlength": "",
            "readonly": 0,
            "disabled": 0
        },
        {
            "key": "field_57a4ef4ca977a",
            "label": "Descripci\u00f3n",
            "name": "descripcion_introduccion_clinica",
            "type": "wysiwyg",
            "instructions": "",
            "required": 0,
            "conditional_logic": 0,
            "wrapper": {
                "width": "",
                "class": "",
                "id": ""
            },
            "default_value": "",
            "tabs": "all",
            "toolbar": "full",
            "media_upload": 0
        },
        {
            "key": "field_57a4ef62a977b",
            "label": "Imagen Destacada",
            "name": "imagen_destacada_introduccion_clinica",
            "type": "image",
            "instructions": "",
            "required": 0,
            "conditional_logic": 0,
            "wrapper": {
                "width": "",
                "class": "",
                "id": ""
            },
            "return_format": "array",
            "preview_size": "thumbnail",
            "library": "all",
            "min_width": "",
            "min_height": "",
            "min_size": "",
            "max_width": "",
            "max_height": "",
            "max_size": "",
            "mime_types": ""
        }
    ],
    "location": [
        [
            {
                "param": "page",
                "operator": "==",
                "value": "852"
            }
        ],
        [
            {
                "param": "page",
                "operator": "==",
                "value": "853"
            }
        ]
    ],
    "menu_order": 0,
    "position": "normal",
    "style": "default",
    "label_placement": "top",
    "instruction_placement": "label",
    "hide_on_screen": "",
    "active": 1,
    "description": "",
    "modified": 1520617323
}