<?xml version="1.0" encoding="utf-8"?>
<!-- Generator: Adobe Illustrator 19.0.0, SVG Export Plug-In . SVG Version: 6.00 Build 0)  -->
<svg version="1.1" id="Capa_1" xmlns="http://www.w3.org/2000/svg" xmlns:xlink="http://www.w3.org/1999/xlink" x="0px" y="0px"
	 viewBox="0 0 500 500" style="enable-background:new 0 0 500 500;" xml:space="preserve">
<style type="text/css">
	.st0{fill:none;stroke:#282828;stroke-width:16.5153;stroke-miterlimit:10;}
	.st1{fill:#282828;}
	.st2{fill:none;stroke:#282828;stroke-width:5.5051;stroke-miterlimit:10;}
</style>
<circle id="XMLID_13_" class="st0" cx="269.8" cy="270.6" r="70.2"/>
<circle id="XMLID_3_" class="st1" cx="269.8" cy="273.8" r="17.2"/>
<circle id="XMLID_5_" class="st2" cx="308.3" cy="283.4" r="7.3"/>
<circle id="XMLID_15_" class="st1" cx="286.3" cy="309.6" r="7.3"/>
<circle id="XMLID_39_" class="st2" cx="253.3" cy="309.6" r="7.3"/>
<circle id="XMLID_6_" class="st2" cx="231.3" cy="284.8" r="7.3"/>
<circle id="XMLID_7_" class="st1" cx="238.1" cy="249" r="7.3"/>
<circle id="XMLID_12_" class="st2" cx="269.8" cy="232.5" r="7.3"/>
<circle id="XMLID_4_" class="st2" cx="302.8" cy="249" r="7.3"/>
<path id="XMLID_265_" class="st1" d="M275.8,158.1V89.5c0,0-192.1-24.6-186.3,185.5h74.8C164.3,274.9,153.7,158.2,275.8,158.1z"/>
<circle id="XMLID_1_" class="st0" cx="269.8" cy="270.6" r="140.8"/>
</svg>
