{
	"area" : {
		"0" : "I Región",
		"1" : "II Región",
		"2" : "III Región",
		"3" : "IV Región",
		"4" : "V Región",
		"5" : "VI Región",
		"6" : "VII Región",
		"7" : "VIII Región",
		"8" : "IX Región",
		"9" : "X Región",
		"10" : "XI Región",
		"11" : "XII Región",
		"12" : "XIII Región",
		"13" : "XIV Región",
		"14" : "XV Región"
	},
	"location" : {
		"0" : "Santiago",
		"1" : "Vitacura",
		"2" : "Las Condes",
		"3" : "Colina",
		"4" : "Talca",
		"5" : "Temuco",
		"6" : "Batuco"
	},
	"concessionaires" : {
		"0" : "Consesionario 01",
		"1" : "Consesionario 02",
		"2" : "Consesionario 03",
		"3" : "Consesionario 04",
		"4" : "Consesionario 05",
		"5" : "Consesionario 06",
		"6" : "Consesionario 07",
		"7" : "Consesionario 08",
		"8" : "Consesionario 09",
		"9" : "Consesionario 10",
	}
}