{
	"area" : {
		"0" : "I Región",
		"1" : "II Región",
		"2" : "III Región",
		"3" : "IV Región",
		"4" : "V Región",
		"5" : "VI Región",
		"6" : "VII Región",
		"7" : "VIII Región",
		"8" : "IX Región",
		"9" : "X Región",
		"10" : "XI Región",
		"11" : "XII Región",
		"12" : "XIII Región",
		"13" : "XIV Región",
		"14" : "XV Región"
	},
	"location" : {
		"0" : "Santiago",
		"0" : "Vitacura",
		"0" : "Las Condes",
		"0" : "Colina",
		"0" : "Talca",
		"0" : "Temuco",
		"0" : "Batuco"
	}
}