<?xml version="1.0" encoding="utf-8"?>
<!-- Generator: Adobe Illustrator 19.2.1, SVG Export Plug-In . SVG Version: 6.00 Build 0)  -->
<svg version="1.1"
	 id="Capa_1" xmlns:cc="http://creativecommons.org/ns#" xmlns:dc="http://purl.org/dc/elements/1.1/" xmlns:inkscape="http://www.inkscape.org/namespaces/inkscape" xmlns:rdf="http://www.w3.org/1999/02/22-rdf-syntax-ns#" xmlns:sodipodi="http://sodipodi.sourceforge.net/DTD/sodipodi-0.dtd" xmlns:svg="http://www.w3.org/2000/svg"
	 xmlns="http://www.w3.org/2000/svg" xmlns:xlink="http://www.w3.org/1999/xlink" x="0px" y="0px" viewBox="0 0 76.7 64.2"
	 style="enable-background:new 0 0 76.7 64.2;" xml:space="preserve">
<style type="text/css">
	.st0{fill:#B11030;}
	.st1{font-family:'BebasNeueBold';}
	.st2{font-size:27.6618px;}
	.st3{font-size:38.4548px;}
</style>
<g>
	<path class="st0" d="M33.6,4.7c-0.1-0.1-0.3-0.1-0.5-0.1c-0.4,0-0.9,0.2-1.1,0.6c0,0.1-1.1,1.6-3.6,2.3c-0.9,0.3-2.2,0.4-3.8,0.5
		c-3.3,0.3-7.8,0.7-11.9,2.9c-6.2,3.2-6.9,9-6.4,11.6c0.3,1.2,1,2.1,1.9,2.6c-2.7,4.3-1.3,10.4-1.3,10.4s-0.1-4.4,2.3-8.6
		c0,0.1,0.1,0.1,0.1,0.2c0.9,1.2,2.4,1.8,4.5,2c0,0,0.1,0,0.1,0c0,0,0.1,0,0.1,0c17.5-1.6,20.4-22.8,20.4-23
		C34.5,5.4,34.2,4.9,33.6,4.7z M13.9,27.7c-2.7-0.2-3.6-1.2-3.9-2.1c0.2-0.2,0.3-0.4,0.5-0.6c3.8-4.6,11.3-9.2,11.3-9.2
		S12.6,19.8,9,24c-0.6-0.3-1.2-0.9-1.3-1.8c-0.4-1.8-0.2-7.2,5.7-10.2c5.8-3,12.4-2.4,15.5-3.3c3.1-0.9,4.4-2.9,4.4-2.9
		S30.5,26.3,13.9,27.7z"/>
	<path class="st0" d="M38.1,16.3c0,0.1,1.8,12.8,12.2,13.7c0,0,0,0,0.1,0c0,0,0,0,0,0c1.3-0.1,2.2-0.5,2.7-1.2c0,0,0-0.1,0.1-0.1
		c1.4,2.5,1.4,5.1,1.4,5.1s0.8-3.7-0.8-6.2c0.5-0.3,1-0.8,1.1-1.5c0.3-1.6-0.1-5-3.8-7c-2.5-1.3-5.2-1.5-7.1-1.7
		c-0.9-0.1-1.7-0.2-2.3-0.3c-1.5-0.4-2.1-1.3-2.2-1.4c-0.2-0.2-0.4-0.4-0.7-0.4c-0.1,0-0.2,0-0.3,0C38.3,15.5,38.1,15.9,38.1,16.3z
		 M38.9,16.2c0,0,0.7,1.2,2.6,1.7c1.9,0.5,5.8,0.2,9.2,2c3.5,1.8,3.6,5,3.4,6.1c-0.1,0.5-0.5,0.9-0.8,1.1c-2.2-2.5-7.7-4.9-7.7-4.9
		s4.5,2.7,6.7,5.5c0.1,0.1,0.2,0.3,0.3,0.4c-0.2,0.5-0.7,1.2-2.3,1.3C40.4,28.3,38.9,16.2,38.9,16.2z"/>
	<text transform="matrix(1 0 0 1 9.1521 52.1451)" class="st0 st1 st2">EURO</text>
	<text transform="matrix(1 0 0 1 53.0076 60.064)" class="st0 st1 st3">4</text>
</g>
</svg>
