<?xml version="1.0" encoding="utf-8"?>
<!-- Generator: Adobe Illustrator 19.2.1, SVG Export Plug-In . SVG Version: 6.00 Build 0)  -->
<svg version="1.1"
	 id="Capa_1" xmlns:cc="http://creativecommons.org/ns#" xmlns:dc="http://purl.org/dc/elements/1.1/" xmlns:inkscape="http://www.inkscape.org/namespaces/inkscape" xmlns:rdf="http://www.w3.org/1999/02/22-rdf-syntax-ns#" xmlns:sodipodi="http://sodipodi.sourceforge.net/DTD/sodipodi-0.dtd" xmlns:svg="http://www.w3.org/2000/svg"
	 xmlns="http://www.w3.org/2000/svg" xmlns:xlink="http://www.w3.org/1999/xlink" x="0px" y="0px" viewBox="0 0 66.7 57.3"
	 style="enable-background:new 0 0 66.7 57.3;" xml:space="preserve">
<style type="text/css">
	.st0{fill:#B11030;}
</style>
<g>
	<path class="st0" d="M34,31.5L43,19.9c0.1-0.1,0-0.2-0.1-0.2H29.3c0,0-0.1,0-0.1,0.1L22.6,33c0,0.1,0,0.2,0.1,0.2l5.2-0.3l0,0
		l-4.7,9.3c0,0.1,0,0.2,0.1,0.2l4.7-0.2c0.1,0,0.1,0.1,0.1,0.2l-6.2,12.4c-0.1,0.1,0.1,0.2,0.2,0.1l14.9-13.7c0.1-0.1,0-0.2-0.1-0.2
		h-4.2c-0.1,0-0.1-0.1-0.1-0.2l7-8.9c0.1-0.1,0-0.2-0.1-0.2H34C34,31.7,33.9,31.6,34,31.5z"/>
	<path class="st0" d="M30.9,9.8c-11.3,0.8-19.8,10.5-19,21.8c0.2,3.1,1.1,6.1,2.7,8.8l-4.1-0.1c-1,0-1.7,0.7-1.8,1.7
		c0,1,0.7,1.7,1.7,1.8l7.6,0.2c0.8,0,1.5-0.5,1.7-1.3l1.9-7.4c0.2-0.9-0.3-1.9-1.2-2.1c-0.9-0.2-1.9,0.3-2.1,1.2l-1,3.8
		c-4.4-8.3-1.3-18.6,7-23s18.6-1.3,23,7s1.3,18.6-7,23c-0.9,0.5-1.9,0.9-2.9,1.2c-1.3,0.4-2.6,0.7-4,0.7c-1,0.1-1.7,0.9-1.6,1.8
		c0.1,1,0.9,1.7,1.8,1.6C45,49.8,53.5,40,52.7,28.8C51.9,17.5,42.2,9,30.9,9.8L30.9,9.8z"/>
</g>
</svg>
