<?xml version="1.0" encoding="utf-8"?>
<!-- Generator: Adobe Illustrator 20.0.0, SVG Export Plug-In . SVG Version: 6.00 Build 0)  -->
<svg version="1.1" id="Layer_1" xmlns="http://www.w3.org/2000/svg" xmlns:xlink="http://www.w3.org/1999/xlink" x="0px" y="0px"
	 viewBox="0 0 60 52" style="enable-background:new 0 0 60 52;" xml:space="preserve">
<style type="text/css">
	.st0{fill:#FF0000;}
</style>
<g>
	<g>
		<g>
			<g>
				<g>
					<path class="st0" d="M39.6,36.7h-2.4c-0.8,0-1.5-0.6-1.6-1.3l-0.1-1.1h-0.1l-0.6,0.8c-0.5,0.6-1.3,0.7-2,0.3l-2.1-1.2
						c-0.7-0.4-1-1.2-0.7-1.9l0.5-1.1l0,0l-1.1,0.4c-0.7,0.3-1.5,0-1.9-0.7l-1.2-2.1c-0.4-0.7-0.3-1.6,0.3-2l1-0.8l-1.2-0.2
						c-0.7-0.1-1.3-0.8-1.3-1.6V22c0-0.8,0.6-1.5,1.3-1.6l1.2-0.2l-0.9-0.7c-0.6-0.5-0.7-1.3-0.3-2l1.2-2.1c0.4-0.7,1.2-1,1.9-0.7
						l1.1,0.5l0,0l-0.5-1.1c-0.3-0.7,0-1.5,0.7-1.9l2.1-1.2c0.7-0.4,1.6-0.3,2,0.3l0.7,0.9l0.1-1.1c0.1-0.7,0.8-1.3,1.6-1.3h2.5
						c0.8,0,1.5,0.6,1.6,1.3l0.1,1c0,0,0,0,0.1,0l0.6-0.8c0.5-0.6,1.3-0.7,2-0.3l2.1,1.2c0.7,0.4,1,1.2,0.7,1.9L46.7,15l0.1,0.1
						l0.8-0.3c0.7-0.3,1.5,0,1.9,0.7l1.2,2.1c0.4,0.7,0.3,1.6-0.3,2l-0.7,0.5c0,0.1,0,0.1,0,0.2l0.8,0.1c0.7,0.1,1.3,0.8,1.3,1.6
						v2.5c0,0.8-0.6,1.5-1.3,1.6l-0.8,0.1c0,0.1,0,0.1-0.1,0.2l0.6,0.5c0.6,0.5,0.7,1.3,0.3,2L49.4,31c-0.4,0.7-1.2,1-1.9,0.7
						l-0.8-0.3l-0.1,0.1l0.3,0.8c0.3,0.7,0,1.5-0.7,1.9l-2.1,1.2c-0.7,0.4-1.6,0.3-2-0.3l-0.6-0.8c-0.1,0-0.1,0-0.2,0l-0.1,0.9
						C41.1,36.1,40.4,36.7,39.6,36.7z M39.2,35.1L39.2,35.1L39.2,35.1z M37.6,35.1L37.6,35.1L37.6,35.1z M37.6,34.7h1.7l0.3-1.9
						l0.7-0.1c0.4-0.1,0.9-0.2,1.3-0.3l0.7-0.2l1.2,1.5l1.6-0.9L44.2,31l0.6-0.5c0.3-0.3,0.7-0.6,1-0.9l0.5-0.5l1.7,0.7l0.9-1.6
						l-1.4-1.1l0.2-0.7c0.2-0.4,0.3-0.9,0.4-1.3l0.1-0.7l1.7-0.2v-1.8l-1.7-0.2L48,21.4c-0.1-0.4-0.2-0.9-0.4-1.3l-0.2-0.7l1.4-1.1
						l-0.9-1.6l-1.7,0.7l-0.5-0.5c-0.3-0.3-0.6-0.6-0.9-0.9l-0.5-0.5l0.7-1.7l-1.6-0.9l-1.2,1.5l-0.7-0.2c-0.4-0.1-0.8-0.2-1.2-0.3
						l-0.7-0.1l-0.3-2h-1.8l-0.3,2L36.7,14c-0.4,0.1-0.8,0.2-1.1,0.3l-0.7,0.2l-1.3-1.7l-1.5,0.8l0.8,2l-0.5,0.5
						c-0.3,0.3-0.6,0.6-0.9,0.9L31,17.6l-2-0.8l-0.8,1.5l1.7,1.3l-0.2,0.7c-0.1,0.4-0.2,0.8-0.3,1.1L29.2,22L27,22.3V24l2.2,0.3
						l0.1,0.7c0.1,0.4,0.2,0.8,0.3,1.1l0.2,0.7l-1.7,1.3l0.8,1.5l2-0.8l0.5,0.6c0.3,0.3,0.6,0.6,0.9,0.9l0.5,0.5l-0.8,2l1.5,0.8
						l1.2-1.6l0.7,0.3c0.4,0.1,0.8,0.3,1.2,0.4l0.7,0.2L37.6,34.7z M31.8,33.1L31.8,33.1L31.8,33.1z M26.6,23.9L26.6,23.9L26.6,23.9
						z M50.3,22.4L50.3,22.4L50.3,22.4z M39.3,11.4C39.3,11.4,39.4,11.4,39.3,11.4L39.3,11.4z"/>
				</g>
			</g>
		</g>
		<g>
			<g>
				<g>
					<path class="st0" d="M38.3,30c-3.8,0-6.9-3.1-6.9-6.9s3.1-6.9,6.9-6.9s6.9,3.1,6.9,6.9S42.1,30,38.3,30z M38.3,19.2
						c-2.1,0-3.9,1.7-3.9,3.9s1.7,3.9,3.9,3.9s3.9-1.7,3.9-3.9S40.4,19.2,38.3,19.2z"/>
				</g>
			</g>
		</g>
	</g>
	<g>
		<g>
			<g>
				<g>
					<path class="st0" d="M13.7,42.5c-3.8,0-6.8-3.1-6.8-6.8c0-3.8,3.1-6.8,6.8-6.8s6.8,3.1,6.8,6.8S17.5,42.5,13.7,42.5z
						 M13.7,31.8c-2.1,0-3.8,1.7-3.8,3.8s1.7,3.8,3.8,3.8s3.8-1.7,3.8-3.8C17.5,33.6,15.8,31.8,13.7,31.8z"/>
				</g>
			</g>
		</g>
	</g>
	<g>
		<path class="st0" d="M16.6,47.1c-6.5,0-10.7-2.2-12.6-6.5C-3.5,23.6,29.7,8,31.1,7.4c8.7-4,19.1-0.2,23.2,8.5
			c2,4.3,2.2,9.1,0.5,13.6c-1.6,4.3-4.9,7.7-9.1,9.6c-5.5,2.4-13.6,5.6-21.3,7.1C21.6,46.8,18.9,47.1,16.6,47.1z M38.4,8.8
			c-2,0-4.1,0.4-6,1.3C21.3,15.2,1.7,27.9,6.7,39.3c2,4.5,7.8,5.8,17.2,3.9c7.4-1.5,15.3-4.6,20.6-6.9c3.5-1.5,6.1-4.3,7.5-7.9
			c1.4-3.7,1.3-7.7-0.4-11.3l0,0C49.1,11.9,43.9,8.8,38.4,8.8z"/>
	</g>
</g>
</svg>
