<?xml version="1.0" encoding="utf-8"?>
<!-- Generator: Adobe Illustrator 20.0.0, SVG Export Plug-In . SVG Version: 6.00 Build 0)  -->
<svg version="1.1" id="Layer_1" xmlns="http://www.w3.org/2000/svg" xmlns:xlink="http://www.w3.org/1999/xlink" x="0px" y="0px"
	 viewBox="0 0 60 52" style="enable-background:new 0 0 60 52;" xml:space="preserve">
<style type="text/css">
	.st0{fill:#FF0000;}
	.st1{fill:#FF0000;stroke:#0066CC;stroke-miterlimit:10;}
</style>
<g>
	<path class="st0" d="M37.6,14.9H22.4V4.8h15.2V14.9z M25.4,11.9h9.2V7.8h-9.2C25.4,7.8,25.4,11.9,25.4,11.9z"/>
</g>
<g>
	<path class="st0" d="M37,24.5H23.3V12.1H37V24.5z M26.3,21.5H34v-6.3h-7.7V21.5z"/>
</g>
<g>
	<path class="st0" d="M33.9,38.9h-7.5V27.4h7.5V38.9z M29.4,35.9h1.5v-5.5h-1.5V35.9z"/>
</g>
<g>
	<path class="st0" d="M34.3,29.5H26l-2.5-8h13.3L34.3,29.5z M28.2,26.5h3.9l0.6-2h-5.2L28.2,26.5z"/>
</g>
<g>
	<path class="st1" d="M34.4,16.8"/>
</g>
<g>
	<path class="st1" d="M24.8,16.8"/>
</g>
<g>
	<rect x="27.4" y="6" class="st0" width="1" height="7.6"/>
</g>
<g>
	<rect x="31.4" y="6" class="st0" width="1" height="7.6"/>
</g>
<g>
	<rect x="24.8" y="17.8" class="st0" width="9.6" height="1"/>
</g>
<g>
	<path class="st0" d="M32.2,45.1c0,1.2-1,2.2-2.2,2.2s-2.2-1-2.2-2.2s2.2-4.9,2.2-4.9S32.2,43.9,32.2,45.1z"/>
</g>
</svg>
