<?xml version="1.0" encoding="utf-8"?>
<!-- Generator: Adobe Illustrator 20.0.0, SVG Export Plug-In . SVG Version: 6.00 Build 0)  -->
<svg version="1.1" id="Layer_1" xmlns="http://www.w3.org/2000/svg" xmlns:xlink="http://www.w3.org/1999/xlink" x="0px" y="0px"
	 viewBox="0 0 60 52" style="enable-background:new 0 0 60 52;" xml:space="preserve">
<style type="text/css">
	.st0{fill:#FF0000;}
</style>
<g>
	<g>
		<path class="st0" d="M35.5,26.6V9c0-1.7-0.7-3.3-1.9-4.5s-2.9-1.9-4.5-1.9c-3.5,0-6.4,2.9-6.4,6.4v17.3c-3.6,2.1-5.7,5.9-5.7,10.1
			c0,6.6,5.4,11.9,11.9,11.9c6.6,0,11.9-5.3,11.9-11.9C40.7,32.4,38.7,28.7,35.5,26.6z M28.8,45.7c-5.1,0-9.3-4.2-9.3-9.3
			c0-3.5,1.9-6.6,5-8.2l0.7-0.4V9c0-2.1,1.7-3.8,3.7-3.8c1,0,2,0.4,2.7,1.1C32.4,7,32.8,8,32.8,9v19.1l0.7,0.4
			c2.8,1.6,4.6,4.7,4.6,8C38.1,41.5,33.9,45.7,28.8,45.7z"/>
	</g>
	<g>
		<path class="st0" d="M30.3,31.4V15.1c0-0.7-0.6-1.3-1.3-1.3c-0.7,0-1.3,0.6-1.3,1.3v16.1c-2.4,0.5-4.2,2.7-4.2,5.2
			c0,2.9,2.4,5.3,5.3,5.3s5.3-2.4,5.3-5.3C34.2,34.1,32.5,32,30.3,31.4z"/>
	</g>
</g>
</svg>
