<?xml version="1.0" encoding="utf-8"?>
<!-- Generator: Adobe Illustrator 20.0.0, SVG Export Plug-In . SVG Version: 6.00 Build 0)  -->
<svg version="1.1" id="Layer_1" xmlns="http://www.w3.org/2000/svg" xmlns:xlink="http://www.w3.org/1999/xlink" x="0px" y="0px"
	 viewBox="0 0 56 52" style="enable-background:new 0 0 56 52;" xml:space="preserve">
<style type="text/css">
	.st0{fill:#B20A2C;}
</style>
<g>
	<g>
		<path class="st0" d="M28,49.8c-4.7,0-8.6-3.9-8.6-8.6s3.9-8.6,8.6-8.6s8.6,3.9,8.6,8.6S32.7,49.8,28,49.8z M28,35.6
			c-3.1,0-5.6,2.5-5.6,5.6s2.5,5.6,5.6,5.6s5.6-2.5,5.6-5.6S31.1,35.6,28,35.6z"/>
	</g>
	<g>
		<path class="st0" d="M39.4,24.8h-5.3l-0.3-1.1c0-0.1-1-2.6-5.7-2.6c-4.7,0-5.5,2.6-5.6,2.6l-0.3,1.1h-5.3V2.3h22.5V24.8z
			 M36.1,21.8h0.3V5.3H19.9v16.5h0.3c0.8-1.4,3-3.7,7.9-3.7C33.1,18.1,35.3,20.4,36.1,21.8z"/>
	</g>
	<g>
		<path class="st0" d="M23.3,38.2l-2.5-1.7l1.2,0.8l-1.3-0.8c0,0,0.1-0.2,0.2-0.6l0.1-0.2c0.2-0.4,0.4-1,0.7-1.7l0.2-0.6
			c0.1-0.2,0.2-0.5,0.2-0.7c0.1-0.2,0.1-0.5,0.2-0.8c0.1-0.3,0.2-0.5,0.2-0.8c0.1-0.3,0.2-0.7,0.3-1c0.1-0.3,0.1-0.5,0.2-0.8
			c0.1-0.4,0.2-0.7,0.3-1.1c0.1-0.5,0.2-1,0.3-1.7c0.1-0.4,0.1-0.8,0.2-1.1c0.1-0.3,0.1-0.6,0.2-0.9c0.1-0.7,0.2-1.3,0.3-1.9
			c0.2-1.1,0.3-2,0.4-3l0-0.3l3,0.3l0,0.3c-0.1,0.9-0.2,1.9-0.4,3.1c-0.1,0.6-0.2,1.2-0.3,1.9c-0.1,0.4-0.1,0.8-0.2,1.1
			c-0.1,0.3-0.1,0.6-0.2,0.9c-0.1,0.7-0.2,1.4-0.4,2.2c-0.1,0.3-0.2,0.6-0.2,0.9c-0.1,0.4-0.2,0.7-0.3,1.1c-0.1,0.3-0.2,0.5-0.2,0.8
			c-0.1,0.3-0.2,0.7-0.3,1c-0.1,0.2-0.1,0.4-0.2,0.6c-0.1,0.4-0.2,0.7-0.3,1l-0.2,0.6c-0.3,0.7-0.5,1.3-0.8,1.8
			C23.7,37.7,23.4,38.1,23.3,38.2z"/>
	</g>
	<g>
		<path class="st0" d="M32.5,37.7c0,0-0.1-0.3-0.3-0.7c-0.3-0.5-0.5-1.2-0.8-1.9l-0.2-0.6c-0.1-0.3-0.2-0.7-0.3-1
			c-0.1-0.2-0.1-0.4-0.2-0.6c-0.1-0.3-0.2-0.7-0.3-1c-0.1-0.3-0.1-0.5-0.2-0.8c-0.1-0.4-0.2-0.8-0.3-1.2c-0.1-0.3-0.1-0.5-0.2-0.8
			l0-0.2c0-0.3-0.1-0.6-0.2-0.9c-0.1-0.3-0.2-0.7-0.2-1c-0.2-0.7-0.3-1.3-0.4-2.1c0-0.3-0.1-0.6-0.2-1c0-0.3-0.1-0.6-0.1-0.9
			c-0.2-1.1-0.3-2.1-0.4-3l0-0.5l3-0.3l0,0.5c0.1,0.9,0.2,1.9,0.3,2.8c0,0.3,0.1,0.6,0.1,0.9c0,0.3,0.1,0.7,0.2,1
			c0.1,0.7,0.2,1.2,0.4,1.8l0,0.2c0,0.3,0.1,0.6,0.2,0.9c0.1,0.3,0.2,0.7,0.2,1c0.1,0.3,0.1,0.6,0.2,0.8c0.1,0.3,0.1,0.6,0.2,0.9
			c0.1,0.3,0.2,0.7,0.3,1c0.1,0.3,0.1,0.5,0.2,0.8c0.1,0.3,0.2,0.5,0.2,0.8c0.1,0.3,0.1,0.5,0.2,0.7l0.2,0.6
			c0.3,0.7,0.5,1.3,0.7,1.7c0.3,0.7,0.5,1,0.5,1.1L32.5,37.7z"/>
	</g>
	<g>
		<path class="st0" d="M28,45c-2.1,0-3.8-1.7-3.8-3.8s1.7-3.8,3.8-3.8c2.1,0,3.8,1.7,3.8,3.8S30.1,45,28,45z M28,39.4
			c-1,0-1.8,0.8-1.8,1.8S27,43,28,43s1.8-0.8,1.8-1.8S29,39.4,28,39.4z"/>
	</g>
	<g>
		<path class="st0" d="M28,17.5c-1,0-1.9-0.9-1.9-1.9s0.9-1.9,1.9-1.9s1.9,0.9,1.9,1.9S29,17.5,28,17.5z M28,15.5
			c-0.1,0-0.1,0-0.1,0.1c0,0.1,0.2,0.1,0.2,0C28.1,15.5,28.1,15.5,28,15.5z"/>
	</g>
	<g>
		<rect x="19" y="6.7" class="st0" width="18.8" height="2"/>
	</g>
	<g>
		<rect x="19" y="10.3" class="st0" width="18.8" height="2"/>
	</g>
</g>
</svg>
