<?xml version="1.0" encoding="utf-8"?>
<!-- Generator: Adobe Illustrator 20.0.0, SVG Export Plug-In . SVG Version: 6.00 Build 0)  -->
<svg version="1.1" id="Layer_1" xmlns="http://www.w3.org/2000/svg" xmlns:xlink="http://www.w3.org/1999/xlink" x="0px" y="0px"
	 viewBox="0 0 56 52" style="enable-background:new 0 0 56 52;" xml:space="preserve">
<style type="text/css">
	.st0{fill:none;stroke:#B20A2C;stroke-width:3;stroke-miterlimit:10;}
	.st1{fill:#B20A2C;}
</style>
<polygon class="st0" points="30.1,31.7 24.6,31.8 21.8,27 24.6,22.3 30,22.2 32.8,27 "/>
<ellipse transform="matrix(0.4989 -0.8667 0.8667 0.4989 -9.657 37.2566)" class="st0" cx="27.4" cy="27" rx="21" ry="21"/>
<ellipse transform="matrix(0.4989 -0.8667 0.8667 0.4989 -9.6629 51.0339)" class="st1" cx="39.3" cy="33.9" rx="1.2" ry="1.2"/>
<ellipse transform="matrix(0.4989 -0.8667 0.8667 0.4989 -21.4289 30.6472)" class="st1" cx="15.8" cy="33.9" rx="1.2" ry="1.2"/>
<ellipse transform="matrix(0.4989 -0.8667 0.8667 0.4989 2.0605 30.5431)" class="st1" cx="27.4" cy="13.5" rx="1.2" ry="1.2"/>
</svg>
