<?xml version="1.0" encoding="utf-8"?>
<!-- Generator: Adobe Illustrator 20.0.0, SVG Export Plug-In . SVG Version: 6.00 Build 0)  -->
<svg version="1.1" id="Layer_1" xmlns="http://www.w3.org/2000/svg" xmlns:xlink="http://www.w3.org/1999/xlink" x="0px" y="0px"
	 viewBox="0 0 56 52" style="enable-background:new 0 0 56 52;" xml:space="preserve">
<style type="text/css">
	.st0{fill:none;stroke:#B20A2C;stroke-width:3;stroke-miterlimit:10;}
	.st1{fill:#B20A2C;stroke:#B20A2C;stroke-miterlimit:10;}
</style>
<g>
	<path class="st0" d="M29.1,9.3c10.3,0,18.7,8.4,18.7,18.7s-8.4,18.7-18.7,18.7S10.4,38.3,10.4,28"/>
	<path class="st0" d="M14.2,28h-8c0-12.5,10.2-22.7,22.7-22.7v8C20.8,13.3,14.2,19.9,14.2,28z"/>
	<circle class="st0" cx="29.1" cy="28" r="10.1"/>
	<circle class="st1" cx="29.1" cy="42.1" r="1.4"/>
	<circle class="st1" cx="43.4" cy="27.7" r="1.4"/>
	<ellipse transform="matrix(0.7071 -0.7071 0.7071 0.7071 -21.2106 24.5363)" class="st1" cx="19" cy="37.9" rx="1.4" ry="1.4"/>
	<ellipse transform="matrix(0.7071 -0.7071 0.7071 0.7071 -0.9815 32.8893)" class="st1" cx="39.2" cy="17.6" rx="1.4" ry="1.4"/>
	<ellipse transform="matrix(0.7071 -0.7071 0.7071 0.7071 -15.3226 38.848)" class="st1" cx="39.2" cy="37.9" rx="1.4" ry="1.4"/>
</g>
</svg>
