<?xml version="1.0" encoding="utf-8"?>
<!-- Generator: Adobe Illustrator 20.0.0, SVG Export Plug-In . SVG Version: 6.00 Build 0)  -->
<svg version="1.1" id="Layer_1" xmlns="http://www.w3.org/2000/svg" xmlns:xlink="http://www.w3.org/1999/xlink" x="0px" y="0px"
	 viewBox="0 0 56 52" style="enable-background:new 0 0 56 52;" xml:space="preserve">
<style type="text/css">
	.st0{fill:#B20A2C;stroke:#B20A2C;stroke-miterlimit:10;}
</style>
<path class="st0" d="M28,48.8L28,48.8L28,48.8C28.1,48.8,28.1,48.8,28,48.8C28.1,48.8,28.1,48.8,28,48.8
	C28.1,48.8,28.1,48.8,28,48.8c12.6,0,22.8-10.2,22.8-22.8c0-12.5-10.1-22.7-22.6-22.8l0,0c-0.1,0-0.1,0-0.2,0
	C15.4,3.2,5.2,13.4,5.2,26S15.4,48.8,28,48.8z M47.8,26c0,2.6-0.5,5.1-1.4,7.3c-1.1-0.4-2.8-0.9-4.9-1.4C42,30,42.2,28,42.2,26
	s-0.3-4.1-0.7-6c1.6-0.4,3.3-0.8,4.9-1.4C47.2,20.9,47.8,23.4,47.8,26z M39,26c0,1.8-0.2,3.6-0.6,5.3c-2.5-0.4-5.5-0.8-8.9-0.9v-8.9
	c2.8-0.1,5.7-0.4,8.8-0.9C38.8,22.4,39,24.2,39,26z M26.5,44.5c-3.5-2.6-6.2-6.1-7.8-10.1c2.7-0.5,5.3-0.7,7.8-0.8V44.5z M29.5,44.5
	v-11c2.9,0.1,5.6,0.4,7.9,0.8C35.9,38.4,33.1,41.9,29.5,44.5z M29.5,18.4v-11c3.6,2.6,6.3,6.1,7.9,10.2C34.7,18.1,32,18.4,29.5,18.4
	z M26.5,7.5v10.9c-2.9-0.1-5.5-0.4-7.8-0.8C20.2,13.7,22.9,10.1,26.5,7.5z M26.5,21.6v8.9c-2.7,0.1-5.7,0.4-8.7,0.9
	c-0.4-1.7-0.7-3.5-0.7-5.4c0-1.8,0.2-3.6,0.6-5.3C20.2,21.1,23.2,21.5,26.5,21.6z M14.7,32c-1.6,0.4-3.3,0.9-5,1.4
	c-0.9-2.3-1.5-4.8-1.5-7.4s0.5-5.1,1.4-7.4c1.1,0.4,2.8,0.9,5,1.4c-0.4,2-0.6,4-0.6,6S14.3,30.1,14.7,32z M11.1,36.2
	c1.5-0.5,3-0.9,4.5-1.2c1.4,3.8,3.6,7.2,6.6,9.9C17.5,43.4,13.6,40.3,11.1,36.2z M34,44.8c2.9-2.8,5.2-6.2,6.5-9.9
	c1.9,0.4,3.4,0.9,4.4,1.2C42.5,40.2,38.6,43.4,34,44.8z M44.9,15.8c-1.5,0.5-3,0.9-4.4,1.2c-1.4-3.7-3.6-7.1-6.5-9.9
	C38.6,8.6,42.5,11.8,44.9,15.8z M22.2,7.1c-3,2.8-5.2,6.2-6.6,10c-2-0.4-3.5-0.9-4.5-1.2C13.5,11.7,17.5,8.6,22.2,7.1z"/>
</svg>
