<?xml version="1.0" encoding="utf-8"?>
<!-- Generator: Adobe Illustrator 20.0.0, SVG Export Plug-In . SVG Version: 6.00 Build 0)  -->
<svg version="1.1" id="Layer_1" xmlns="http://www.w3.org/2000/svg" xmlns:xlink="http://www.w3.org/1999/xlink" x="0px" y="0px"
	 viewBox="0 0 56 52" style="enable-background:new 0 0 56 52;" xml:space="preserve">
<style type="text/css">
	.st0{fill:#B20A2C;}
</style>
<g>
	<path class="st0" d="M34.6,28.3V10.8c0-1.7-0.7-3.3-1.9-4.5s-2.9-1.9-4.5-1.9c-3.5,0-6.4,2.9-6.4,6.4v17.3
		c-3.6,2.1-5.7,5.9-5.7,10.1c0,6.6,5.3,11.9,11.9,11.9s11.9-5.3,11.9-11.9C39.9,34.2,37.9,30.5,34.6,28.3z M28,47.5
		c-5.1,0-9.3-4.2-9.3-9.3c0-3.5,1.9-6.6,5-8.2l0.7-0.4V10.8c0-2.1,1.7-3.8,3.7-3.8c1,0,2,0.4,2.7,1.1s1.1,1.6,1.1,2.7v19.1l0.7,0.4
		c2.8,1.6,4.6,4.7,4.6,8C37.2,43.3,33.1,47.5,28,47.5z"/>
	<path class="st0" d="M29.5,33.2V16.9c0-0.7-0.6-1.3-1.3-1.3c-0.7,0-1.3,0.6-1.3,1.3V33c-2.4,0.5-4.2,2.7-4.2,5.2
		c0,2.9,2.4,5.3,5.3,5.3s5.3-2.4,5.3-5.3C33.3,35.8,31.7,33.8,29.5,33.2z"/>
</g>
</svg>
