<?xml version="1.0" encoding="utf-8"?>
<!-- Generator: Adobe Illustrator 20.0.0, SVG Export Plug-In . SVG Version: 6.00 Build 0)  -->
<svg version="1.1" id="Layer_1" xmlns="http://www.w3.org/2000/svg" xmlns:xlink="http://www.w3.org/1999/xlink" x="0px" y="0px"
	 viewBox="0 0 56 52" style="enable-background:new 0 0 56 52;" xml:space="preserve">
<style type="text/css">
	.st0{fill:none;stroke:#0066CC;stroke-width:2;stroke-miterlimit:10;}
	.st1{fill:none;stroke:#0066CC;stroke-width:3;stroke-miterlimit:10;}
</style>
<g>
	<g>
		<g>
			<g>
				<path class="st0" d="M48.7,21l-1.5-0.2c-0.1-0.5-0.2-1-0.4-1.4l1.2-0.9c0.2-0.1,0.2-0.5,0.1-0.7l-1.2-2.1
					c-0.2-0.3-0.4-0.4-0.7-0.3l-1.4,0.6c-0.3-0.4-0.7-0.7-1-1l0.6-1.5c0.1-0.2,0-0.5-0.3-0.7l-2.1-1.2c-0.3-0.2-0.6-0.1-0.7,0.1
					l-1,1.3c-0.4-0.1-0.9-0.3-1.3-0.3l-0.2-1.7c0-0.2-0.3-0.4-0.6-0.4h-2.5c-0.3,0-0.6,0.2-0.6,0.4l-0.2,1.7
					c-0.4,0.1-0.9,0.2-1.3,0.4l-1.1-1.5c-0.1-0.2-0.5-0.2-0.7-0.1l-2.1,1.2c-0.3,0.1-0.4,0.4-0.3,0.7L30,15c-0.3,0.3-0.6,0.6-0.9,1
					l-1.8-0.7c-0.2-0.1-0.5,0-0.7,0.3l-1.2,2.1c-0.1,0.3-0.1,0.6,0.1,0.7l1.5,1.2c-0.1,0.4-0.3,0.8-0.3,1.2l-1.9,0.3
					c-0.2,0-0.4,0.3-0.4,0.6v2.4c0,0.3,0.2,0.6,0.4,0.6l1.9,0.2c0.1,0.4,0.2,0.9,0.3,1.3l-1.5,1.2c-0.2,0.1-0.2,0.5-0.1,0.7l1.2,2.1
					c0.1,0.3,0.4,0.4,0.7,0.3l1.7-0.7c0.3,0.3,0.6,0.7,0.9,1l-0.7,1.7c-0.1,0.2,0,0.5,0.3,0.7l2.1,1.2c0.3,0.1,0.6,0.1,0.7-0.1
					l1.1-1.4c0.4,0.2,0.9,0.3,1.4,0.4l0.2,1.8c0,0.2,0.3,0.4,0.6,0.4h2.4c0.3,0,0.6-0.2,0.6-0.4l0.2-1.6c0.5-0.1,1-0.2,1.4-0.3
					l1,1.3c0.1,0.2,0.5,0.2,0.7,0.1l2.1-1.2c0.3-0.2,0.4-0.4,0.3-0.7l-0.6-1.4c0.4-0.3,0.7-0.7,1.1-1l1.4,0.6c0.2,0.1,0.5,0,0.7-0.3
					l1.2-2.1c0.2-0.3,0.1-0.6-0.1-0.7l-1.2-0.9c0.2-0.5,0.3-1,0.4-1.5l1.5-0.2c0.2,0,0.4-0.3,0.4-0.6v-2.5
					C49.1,21.3,48.9,21,48.7,21z"/>
			</g>
		</g>
		<g>
			<g>
				<circle class="st1" cx="36.6" cy="22.7" r="5.4"/>
			</g>
		</g>
	</g>
	<g>
		<g>
			<g>
				<circle class="st1" cx="12" cy="35.2" r="5.3"/>
			</g>
		</g>
	</g>
	<path class="st1" d="M51.2,16.1c3.7,8,0.3,17.6-7.8,21.2C35.3,40.9,9,51.7,3.6,39.5C-2.5,25.7,22,12,30,8.3S47.5,8.1,51.2,16.1z"/>
</g>
</svg>
