<?xml version="1.0" encoding="utf-8"?>
<!-- Generator: Adobe Illustrator 19.0.0, SVG Export Plug-In . SVG Version: 6.00 Build 0)  -->
<svg version="1.1" xmlns="http://www.w3.org/2000/svg" xmlns:xlink="http://www.w3.org/1999/xlink" x="0px" y="0px"
	 viewBox="0 0 500 500" style="enable-background:new 0 0 500 500;" xml:space="preserve">
<style type="text/css">
	.st0{fill:#0F69C9;}
</style>
<g id="Capa_2">
</g>
<g id="Capa_4">
	<path id="XMLID_211_" class="st0" d="M226.8,84.9c-0.9-0.3-1.9-0.5-2.8-0.5c-2.7,0-5.3,1.4-6.9,3.7c-0.3,0.4-6.5,9.8-22.1,14.2
		c-5.6,1.6-13.8,2.3-23.4,3.2c-20.2,1.9-47.8,4.4-73.3,17.5C60,142.8,56,178.5,59.2,194.6c1.5,7.7,6.3,12.7,11.4,15.8
		c-16.4,26.3-7.7,63.9-7.7,63.9s-0.6-27.2,14.3-52.8c0.3,0.4,0.5,0.8,0.8,1.2c5.3,7.2,14.6,11.3,27.6,12.1c0.2,0,0.3,0,0.5,0
		c0.2,0,0.5,0,0.7,0c107.3-9.6,125.2-140,125.4-141.3C232.6,89.7,230.4,86.2,226.8,84.9z M106.1,226.7c-16.6-1-22-7.6-23.7-13
		c1-1.3,1.9-2.6,2.9-3.9c23.3-28.2,69.3-56.5,69.3-56.5s-56.9,24.8-79.2,50.6c-3.4-1.9-7.1-5.3-8.3-10.8c-2.2-11.1-1-44.2,34.9-62.7
		c35.9-18.4,76-14.7,95.1-20.2c19.2-5.4,26.8-17.7,26.8-17.7S208.1,217.6,106.1,226.7z"/>
	<path id="XMLID_208_" class="st0" d="M254.6,156.1c0.1,0.8,10.8,78.7,74.9,84.4c0.1,0,0.3,0,0.4,0c0.1,0,0.2,0,0.3,0
		c7.8-0.5,13.3-2.9,16.5-7.2c0.2-0.2,0.3-0.5,0.5-0.7c8.9,15.3,8.6,31.5,8.6,31.5s5.2-22.5-4.6-38.2c3-1.9,5.9-4.9,6.8-9.4
		c1.9-9.6-0.5-31-23.4-42.7c-15.2-7.8-31.7-9.4-43.8-10.5c-5.7-0.5-10.6-1-14-1.9c-9.3-2.6-13.1-8.3-13.2-8.5
		c-0.9-1.4-2.5-2.2-4.1-2.2c-0.6,0-1.1,0.1-1.7,0.3C255.6,151.8,254.3,153.9,254.6,156.1z M259.4,155.5c0,0,4.6,7.3,16,10.6
		c11.5,3.2,35.4,1,56.8,12c21.4,11,22.2,30.8,20.9,37.4c-0.7,3.3-2.9,5.3-4.9,6.5c-13.3-15.4-47.3-30.2-47.3-30.2
		s27.5,16.9,41.4,33.7c0.6,0.8,1.2,1.5,1.8,2.3c-1,3.2-4.2,7.2-14.1,7.8C269,230.3,259.4,155.5,259.4,155.5z"/>
	<g id="XMLID_6_">
		<path id="XMLID_7_" class="st0" d="M102.2,307.8h25.7v17h-25.7v34.8h32.3v17h-51v-119h51v17h-32.3V307.8z"/>
		<path id="XMLID_12_" class="st0" d="M163.9,257.7v91.8c0,4.3,0.9,7.3,2.6,9c1.8,1.7,4.1,2.5,7.1,2.5c2.9,0,5.3-0.8,7.1-2.5
			c1.8-1.7,2.6-4.7,2.6-9v-91.8H201v90.6c0,9.6-2.4,17-7.1,22.2c-4.7,5.2-11.6,7.7-20.8,7.7c-9.2,0-16.1-2.6-20.8-7.7
			c-4.7-5.2-7.1-12.5-7.1-22.2v-90.6H163.9z"/>
		<path id="XMLID_14_" class="st0" d="M252.8,376.7c-0.2-0.8-0.5-1.5-0.7-2.2c-0.2-0.7-0.4-1.5-0.6-2.5c-0.2-1-0.3-2.3-0.3-3.9
			c-0.1-1.6-0.1-3.6-0.1-5.9v-18.7c0-5.6-1-9.5-2.9-11.7c-1.9-2.3-5-3.4-9.3-3.4h-6.5v48.4h-18.7v-119h28.2c9.7,0,16.8,2.3,21.2,6.8
			c4.4,4.5,6.5,11.4,6.5,20.6v9.3c0,12.2-4.1,20.3-12.2,24.1c4.8,1.9,8,5.1,9.8,9.4c1.8,4.4,2.6,9.7,2.6,15.9v18.4
			c0,2.9,0.1,5.5,0.3,7.7c0.2,2.2,0.8,4.4,1.7,6.7H252.8z M232.4,274.7v36.5h7.3c3.5,0,6.3-0.9,8.2-2.7c2-1.8,3-5.1,3-9.9v-11.7
			c0-4.3-0.8-7.4-2.3-9.3c-1.5-1.9-3.9-2.9-7.2-2.9H232.4z"/>
		<path id="XMLID_17_" class="st0" d="M280.5,286.2c0-9.6,2.4-17,7.3-22.2c4.9-5.2,11.9-7.7,21.1-7.7c9.2,0,16.2,2.6,21.1,7.7
			c4.9,5.2,7.3,12.6,7.3,22.2v61.9c0,9.6-2.4,17-7.3,22.2c-4.9,5.2-11.9,7.7-21.1,7.7c-9.2,0-16.2-2.6-21.1-7.7
			c-4.9-5.2-7.3-12.5-7.3-22.2V286.2z M299.2,349.3c0,4.3,0.9,7.3,2.6,9.1c1.8,1.8,4.1,2.6,7.1,2.6c2.9,0,5.3-0.9,7.1-2.6
			c1.8-1.8,2.6-4.8,2.6-9.1V285c0-4.3-0.9-7.3-2.6-9.1c-1.8-1.8-4.1-2.6-7.1-2.6c-2.9,0-5.3,0.9-7.1,2.6c-1.8,1.8-2.6,4.8-2.6,9.1
			V349.3z"/>
	</g>
	<g id="XMLID_1_">
		<path id="XMLID_3_" class="st0" d="M349.5,371.7l47.3-111.8h28.4v111.8h12.3v23.6h-12.3v30h-25.5v-30h-50.1V371.7z M399.6,371.7
			v-62.1l-26.2,62.1H399.6z"/>
	</g>
</g>
</svg>
