<?xml version="1.0" encoding="utf-8"?>
<!-- Generator: Adobe Illustrator 20.0.0, SVG Export Plug-In . SVG Version: 6.00 Build 0)  -->
<svg version="1.1" id="Layer_1" xmlns="http://www.w3.org/2000/svg" xmlns:xlink="http://www.w3.org/1999/xlink" x="0px" y="0px"
	 viewBox="0 0 56 52" style="enable-background:new 0 0 56 52;" xml:space="preserve">
<style type="text/css">
	.st0{fill:none;stroke:#0066CC;stroke-width:3;stroke-miterlimit:10;}
	.st1{fill:none;stroke:#0066CC;stroke-miterlimit:10;}
	.st2{fill:#0066CC;}
</style>
<rect x="22.4" y="6.4" class="st0" width="12.2" height="7.1"/>
<rect x="23.4" y="13.8" class="st0" width="10.7" height="9.3"/>
<rect x="26.5" y="29.1" class="st0" width="4.5" height="8.5"/>
<polygon class="st0" points="31.8,28.2 25.6,28.2 24.1,23.1 33.3,23.1 "/>
<path class="st1" d="M33,17"/>
<path class="st1" d="M23.4,17"/>
<line class="st1" x1="26.5" y1="13.8" x2="26.5" y2="6.2"/>
<line class="st1" x1="30.4" y1="13.8" x2="30.4" y2="6.2"/>
<line class="st1" x1="23.4" y1="18.5" x2="33" y2="18.5"/>
<path class="st2" d="M30.8,45.2c0,1.2-1,2.2-2.2,2.2c-1.2,0-2.2-1-2.2-2.2c0-1.2,2.2-4.9,2.2-4.9S30.8,44,30.8,45.2z"/>
</svg>
