<?xml version="1.0" encoding="utf-8"?>
<!-- Generator: Adobe Illustrator 20.0.0, SVG Export Plug-In . SVG Version: 6.00 Build 0)  -->
<svg version="1.1" id="Layer_1" xmlns="http://www.w3.org/2000/svg" xmlns:xlink="http://www.w3.org/1999/xlink" x="0px" y="0px"
	 viewBox="0 0 85 52" style="enable-background:new 0 0 85 52;" xml:space="preserve">
<style type="text/css">
	.st0{fill:none;stroke:#0066CC;stroke-width:3;stroke-miterlimit:10;}
	.st1{fill:none;stroke:#0066CC;stroke-miterlimit:10;}
</style>
<circle class="st0" cx="22.7" cy="33.8" r="11.9"/>
<circle class="st0" cx="69.5" cy="33.8" r="11.9"/>
<polyline class="st0" points="51.6,3.6 57.1,3.6 69.4,34.9 "/>
<path class="st0" d="M20.8,14.3h40.5l1.3,3.4L47.4,33.1h-7.5c0,0-0.9-16.1-18.1-16.1L20.8,14.3z"/>
<line class="st1" x1="1.9" y1="21.9" x2="16" y2="21.9"/>
<line class="st1" x1="2.5" y1="15.7" x2="17.4" y2="15.7"/>
<line class="st1" x1="1.9" y1="30.3" x2="21.9" y2="30.3"/>
<line class="st1" x1="1.2" y1="37.4" x2="20.7" y2="37.4"/>
</svg>
