<?xml version="1.0" encoding="utf-8"?>
<!-- Generator: Adobe Illustrator 19.0.0, SVG Export Plug-In . SVG Version: 6.00 Build 0)  -->
<svg version="1.1" xmlns="http://www.w3.org/2000/svg" xmlns:xlink="http://www.w3.org/1999/xlink" x="0px" y="0px"
	 viewBox="0 0 500 500" style="enable-background:new 0 0 500 500;" xml:space="preserve">
<style type="text/css">
	.st0{fill:#0F69C9;}
	.st1{fill:#595959;}
</style>
<g id="Capa_2">
</g>
<g id="Capa_3">
	<g id="XMLID_220_">
		<path id="XMLID_219_" class="st0" d="M99.3,348.2c0.1,0.2,0.1,0.3,0.2,0.5c0.2,0.3,0.4,0.5,0.6,0.7c7.3,12.6,16.2,24.4,26.7,34.9
			c5,5,13.1,5.1,18.2,0.1c5-5,5.1-13.1,0.1-18.2c-6.1-6.1-11.4-12.6-16.3-19.6l21.6-12.4c6.1-3.6,8.2-11.5,4.7-17.6
			c-3.6-6.2-11.5-8.2-17.6-4.7l-21.6,12.4c-7.3-15.6-11.8-32.3-13.3-49.7h24.9c7.1,0,12.9-5.8,12.9-12.9c0-7.1-5.8-12.9-12.9-12.9
			h-24.9c3.8-44.8,27.7-83.9,62.6-108.3l12.4,21.5c2.4,4.2,6.8,6.5,11.2,6.5c2.2,0,4.4-0.6,6.4-1.7c6.2-3.5,8.3-11.4,4.7-17.6
			l-12.4-21.5c15.3-7.2,32-11.9,49.7-13.4v24.8c0,7.2,5.8,12.9,12.9,12.9c7.1,0,12.9-5.8,12.9-12.9v-24.8
			c17.6,1.5,34.3,6.2,49.7,13.4l-12.4,21.5c-3.6,6.2-1.4,14.1,4.7,17.6c2.1,1.1,4.2,1.7,6.4,1.7c4.5,0,8.8-2.3,11.2-6.5l12.4-21.5
			c14.1,10,26.4,22.3,36.3,36.4l-21.5,12.4c-6.1,3.6-8.2,11.4-4.7,17.6c2.4,4.1,6.8,6.4,11.2,6.4c2.2,0,4.4-0.5,6.5-1.7l21.5-12.4
			c7.2,15.3,11.8,32,13.4,49.7l-24.9,0c-7.1,0-12.9,5.8-12.9,12.9c0,7.1,5.8,12.9,12.9,12.9h24.9c-1.5,17.4-6.1,34.1-13.3,49.7
			L362.5,312c-6.1-3.5-14-1.4-17.6,4.7c-3.5,6.1-1.4,14,4.8,17.6l21.5,12.4c-4.9,7-10.4,13.7-16.5,19.9c-5,5-5,13.2,0,18.2
			c2.5,2.5,5.8,3.8,9.1,3.8c3.3,0,6.6-1.3,9.1-3.8c10.6-10.6,19.5-22.5,26.9-35.1c0.2-0.3,0.5-0.6,0.7-1c0.1-0.2,0.1-0.4,0.2-0.6
			c14.9-26,23-55.4,23-86.1c0.1-0.1,0.1-0.1,0.1-0.2c0,0-0.1-0.1-0.1-0.2c0-31.2-8.4-60.5-22.9-85.9c-0.2-0.3-0.2-0.6-0.4-0.9
			c-0.2-0.3-0.5-0.6-0.7-0.9c-15-25.6-36.4-46.9-62-61.9c-0.3-0.2-0.5-0.6-0.9-0.7c-0.3-0.2-0.6-0.2-0.9-0.3
			c-25.3-14.5-54.7-23-86-23c-31.3,0-60.6,8.5-86,23c-0.3,0.1-0.6,0.1-0.9,0.3c-0.3,0.2-0.6,0.5-0.8,0.7
			c-51.4,30.3-86.1,86-86.1,149.8C76.1,292.6,84.3,322.2,99.3,348.2L99.3,348.2z"/>
		<path id="XMLID_221_" class="st0" d="M400.7,348.2c15-26,23.1-55.6,23.1-86.4c0-63.8-34.7-119.5-86.1-149.8
			c-0.3-0.2-0.5-0.6-0.8-0.7c-0.3-0.2-0.6-0.2-0.9-0.3c-25.4-14.5-54.7-23-86-23c-31.4,0-60.7,8.5-86,23c-0.3,0.1-0.6,0.1-0.9,0.3
			c-0.4,0.2-0.6,0.6-0.9,0.7c-25.6,15-47,36.4-62,61.9c-0.2,0.4-0.6,0.6-0.7,0.9c-0.2,0.3-0.2,0.6-0.4,0.9
			c-14.5,25.3-22.9,54.6-22.9,85.9c0,0.1-0.1,0.1-0.1,0.2c0,0.1,0,0.1,0.1,0.2c0,30.7,8.1,60.2,23,86.1c0.1,0.2,0.1,0.5,0.2,0.6
			c0.2,0.3,0.5,0.6,0.7,1c7.4,12.6,16.4,24.4,26.9,35.1c2.5,2.5,5.8,3.8,9.1,3.8c3.3,0,6.6-1.3,9.1-3.8c5-5,5-13.2,0-18.2
			c-6.2-6.2-11.6-12.9-16.5-19.9l21.5-12.4c6.2-3.5,8.3-11.5,4.8-17.6c-3.5-6.2-11.5-8.3-17.6-4.7l-21.6,12.4
			c-7.3-15.5-11.8-32.3-13.3-49.7h24.9c7.1,0,12.9-5.8,12.9-12.9c0-7.1-5.8-12.9-12.9-12.9l-24.9,0c1.5-17.6,6.2-34.3,13.4-49.7
			l21.5,12.4c2.1,1.2,4.2,1.7,6.5,1.7c4.4,0,8.8-2.3,11.2-6.4c3.5-6.2,1.4-14-4.7-17.6L128.8,177c9.9-14.1,22.2-26.4,36.3-36.4
			l12.4,21.5c2.4,4.1,6.8,6.5,11.2,6.5c2.2,0,4.3-0.6,6.4-1.7c6.1-3.5,8.3-11.4,4.7-17.6l-12.4-21.5c15.3-7.2,32-11.9,49.7-13.4
			v24.8c0,7.2,5.7,12.9,12.9,12.9c7.1,0,12.9-5.8,12.9-12.9v-24.8c17.6,1.5,34.3,6.2,49.7,13.4l-12.4,21.5
			c-3.6,6.2-1.5,14.1,4.7,17.6c2,1.1,4.2,1.7,6.4,1.7c4.5,0,8.8-2.3,11.2-6.5l12.4-21.5c34.9,24.5,58.7,63.5,62.6,108.3h-24.9
			c-7.1,0-12.9,5.8-12.9,12.9c0,7.2,5.8,12.9,12.9,12.9h24.9c-1.5,17.4-6.1,34.1-13.3,49.7L362.6,312c-6.2-3.5-14.1-1.5-17.6,4.7
			c-3.5,6.2-1.4,14,4.7,17.6l21.6,12.4c-4.9,6.9-10.2,13.5-16.3,19.6c-5,5.1-5,13.2,0.1,18.2c5,5,13.2,5,18.2-0.1
			c10.5-10.6,19.4-22.4,26.7-34.9c0.2-0.2,0.5-0.5,0.6-0.7C400.7,348.6,400.6,348.4,400.7,348.2L400.7,348.2z"/>
		<path id="XMLID_218_" class="st1" d="M400.7,348.2"/>
		<path id="XMLID_225_" class="st0" d="M231.8,267c3.8,3.6,8.6,6.1,14.2,6.9c14.1,1.9,27.1-7.9,29.1-22c1.9-14.1-7.9-27.1-22.1-29
			c-14.1-1.9-27.1,7.9-29,22c-0.1,0.8-0.1,1.7-0.1,2.5L130.2,297L231.8,267z M252.6,260.8l0.6-0.2
			C253,260.7,252.8,260.8,252.6,260.8L252.6,260.8z M262.3,250.2c-0.6,4.7-3.8,8.2-8,9.9l-9.6-23.4c2-0.8,4.2-1.3,6.5-1
			C258.2,236.6,263.2,243.1,262.3,250.2L262.3,250.2z M262.3,250.2"/>
		<path id="XMLID_222_" class="st0" d="M314.4,360.5H185.6c-7.1,0-12.9,5.8-12.9,12.9v25.7c0,7.1,5.8,12.9,12.9,12.9h128.8
			c7.1,0,12.9-5.8,12.9-12.9v-25.7C327.2,366.3,321.5,360.5,314.4,360.5L314.4,360.5z M314.4,360.5"/>
	</g>
</g>
</svg>
