<?xml version="1.0" encoding="utf-8"?>
<!-- Generator: Adobe Illustrator 19.0.0, SVG Export Plug-In . SVG Version: 6.00 Build 0)  -->
<svg version="1.1" xmlns="http://www.w3.org/2000/svg" xmlns:xlink="http://www.w3.org/1999/xlink" x="0px" y="0px"
	 viewBox="0 0 500 500" style="enable-background:new 0 0 500 500;" xml:space="preserve">
<style type="text/css">
	.st0{fill:none;stroke:#0F69C9;stroke-width:57.7737;stroke-miterlimit:10;}
	.st1{fill:#0F69C9;}
	.st2{fill:none;stroke:#0F69C9;stroke-width:11.5547;stroke-miterlimit:10;}
</style>
<g id="Capa_2">
</g>
<g id="Capa_3">
	<g id="XMLID_1_">
		<circle id="XMLID_135_" class="st0" cx="249" cy="236.5" r="134.3"/>
		<path id="XMLID_116_" class="st1" d="M358.9,270.4c1.3-3.8,2.2-7.9,2.8-11.9c0.6-3.2,1.2-6.3,1.3-9.6c0.5-4,0.6-8.1,0.5-12.1
			c-0.5-36.5-18.4-71.7-49.6-93.1c-3.4-2.2-6.8-4.4-10.4-6.2c-1.4-0.9-2.7-1.6-4.2-2.3c-1.6-0.7-3.1-1.5-4.7-2
			c-3.6-1.7-7.4-3.2-11.2-4.3c-36-11.4-74.9-4-103.8,18.2c-3.4,2.3-6.5,5-9.4,7.8c-2.2,2.2-4.6,4.5-6.7,6.9
			c-2.7,2.9-5.2,6.1-7.5,9.5c-3.8,5.2-7.1,10.6-10,16.5c-14,28.6-14.8,60.3-5,88.2l0.2,0.5l4.1,10.4l0.2,0.3
			c1.3,2.9,2.9,5.8,4.4,8.4l6.8,10.4c10.5,14.5,24.6,26.7,41.9,35.1c17.1,8.3,35.3,12,53.2,11.4c4.1,0,8.2-0.3,12.2-0.9
			c3.3-0.4,6.5-1,9.6-1.6l11.6-3.3c28-9.3,52.6-29.5,66.6-58.3C354.8,282.5,357.2,276.5,358.9,270.4z M353.5,248.4
			c-0.2,2.9-0.7,6.1-1.2,8.7c0,0.1,0,0.1,0,0.2l-66.8-9.4c0.9-3.2,1.3-6.4,1.3-9.6l66.9,9.4C353.6,247.9,353.5,248.1,353.5,248.4z
			 M354.1,235.4l-71.8-15.2l27.4-67.8C336.7,171.4,353,202.3,354.1,235.4z M280.5,243.9c-1.3,2.7-4.6,3.8-7.3,2.5s-3.9-4.6-2.6-7.3
			c1.3-2.8,4.6-3.9,7.3-2.6C280.7,237.9,281.9,241.1,280.5,243.9z M259,266.4c-1.3,2.7-4.6,3.8-7.3,2.5c-2.7-1.3-3.9-4.6-2.6-7.3
			c1.3-2.8,4.6-3.9,7.3-2.6C259.2,260.4,260.3,263.7,259,266.4z M290.5,141.8c0.4,0.1,0.8,0.2,1.1,0.4c1,0.4,1.8,0.8,2.8,1.3
			l1.3,0.6c0.9,0.4,1.9,0.9,3.4,1.9l0.2,0.1l-29.6,60.7c-1.4-0.9-2.8-1.8-4.3-2.5c-1.5-0.7-3-1.4-4.6-1.8L290.5,141.8z M263.2,208.8
			c2.8,1.3,3.9,4.6,2.6,7.3c-1.3,2.7-4.6,3.8-7.3,2.5c-2.7-1.3-3.9-4.6-2.6-7.3C257.2,208.6,260.5,207.5,263.2,208.8z M255.7,224.5
			c7.6,3.7,10.7,12.8,7.1,20.4c-3.6,7.5-12.8,10.7-20.3,7c-7.5-3.6-10.7-12.8-7.1-20.3C239,224,248.1,220.8,255.7,224.5z
			 M228.2,245.4c2.7,1.3,3.9,4.6,2.6,7.3c-1.3,2.7-4.6,3.8-7.3,2.5c-2.7-1.3-3.9-4.6-2.6-7.3C222.2,245.2,225.4,244.1,228.2,245.4z
			 M227.8,224.4c-2.7-1.3-3.9-4.6-2.6-7.3c1.3-2.8,4.6-3.9,7.3-2.6c2.7,1.3,3.9,4.6,2.6,7.3C233.8,224.6,230.5,225.7,227.8,224.4z
			 M279.3,137.6L242.8,201l0,0l0,0l-56-47.2C213.4,134.1,247.8,128.1,279.3,137.6z M170.8,168.2c1.9-2.2,4-4.3,6.2-6.4
			c0.1,0,0.2-0.2,0.4-0.3l48.6,47c-2.6,1.9-4.9,4.3-6.9,6.9l-48.5-47C170.5,168.4,170.7,168.3,170.8,168.2z M149.5,271.4
			c-8.8-26.3-7.1-54.4,5.1-79.4c2.4-4.8,5.2-9.4,8.4-14l0.5,0.5l48.3,53.8L149.5,271.4z M158.5,291.3l-0.1-0.4c-1.6-2.5-3-5.2-4-7.6
			l-0.3-0.5l59.5-31.7c1.1,3.1,2.6,6,4.5,8.7L158.5,291.3z M203,332.6c-15.1-7.4-27.9-18-37.6-31.1l66.8-29.6l18.2,71.2
			C234,343.5,218,339.9,203,332.6z M271.9,340.7c-3,0.5-5.8,1.2-9.1,1.6c0,0-0.1,0-0.2,0.1l-11.8-66.5c3.3-0.2,6.6-0.8,9.7-1.8
			l11.6,66.5C272,340.7,272,340.7,271.9,340.7z M283.8,337.2l-7.1-73.3l72.7,5.1c-1.5,5.3-3.6,10.4-6,15.3
			C331.2,309.3,310,328.1,283.8,337.2z"/>
		<line id="XMLID_115_" class="st2" x1="64.2" y1="397.8" x2="435.8" y2="397.8"/>
		<g id="XMLID_81_">
			<g id="XMLID_37_">
				<path id="XMLID_41_" class="st1" d="M381,379.8c21-12.1,36.5-32.3,42.6-55.7c1.4-5.4-6.9-7.7-8.4-2.3
					c-5.6,21.4-19.5,39.6-38.6,50.6C371.8,375.1,376.2,382.6,381,379.8L381,379.8z"/>
			</g>
		</g>
		<g id="XMLID_17_">
			<g id="XMLID_31_">
				<path id="XMLID_35_" class="st1" d="M115.8,365.4c-15.6-9.9-27.7-24.1-35.3-40.9c-2.3-5.1-9.8-0.7-7.5,4.4
					c8.2,18.2,21.6,33.4,38.4,44C116.1,375.9,120.5,368.4,115.8,365.4L115.8,365.4z"/>
			</g>
		</g>
		<g id="XMLID_24_">
			<g id="XMLID_25_">
				<path id="XMLID_29_" class="st1" d="M417.2,375.3c8.1-8.5,14.5-18.2,19.1-29c2.1-5.1-5.3-9.5-7.5-4.4
					c-4.3,10.1-10.2,19.3-17.8,27.3C407.2,373.3,413.4,379.4,417.2,375.3L417.2,375.3z"/>
			</g>
		</g>
		<g id="XMLID_22_">
			<g id="XMLID_21_">
				<path id="XMLID_42_" class="st1" d="M87.8,367.9c-6.1-6.2-10.7-13.3-13.8-21.4c-1.9-5.2-10.3-2.9-8.4,2.3
					c3.6,9.5,8.9,18,16,25.3C85.6,378,91.7,371.9,87.8,367.9L87.8,367.9z"/>
			</g>
		</g>
	</g>
</g>
</svg>
